"ID","Submitted","First Name","Last Name","City","Office","Position","Town","UTM Source","UTM Medium","UTM Term","UTM Content","UTM Campaign","UTM Gclid","Browser Type","Referrer","Employee Referrer"
"6088","Sep 15, 2020","Ruthanne","Souza","Ipswich","Gloucester","Companion Caregiver","ipswich","","","","","","","Mozilla/5.0 (iPhone; CPU iPhone OS 13_7 like Mac OS X) AppleWebKit/605.1.15 (KHTML, like Gecko) GSA/123.4.330040034 Mobile/17H35 Safari/604.1","https://jooble.org/",""
"6085","Sep 14, 2020","Emelin","Polanco","Dorchester","Waltham","Home Health Aide","waltham","","","","","","","Mozilla/5.0 (iPhone; CPU iPhone OS 13_6_1 like Mac OS X) AppleWebKit/605.1.15 (KHTML, like Gecko) Version/13.1.2 Mobile/15E148 Safari/604.1","https://connectedhomecare.com/home-care-careers/certified-home-health-aide-job-waltham-full-time-q21",""
"6061","Sep 10, 2020","Ingrid","Taybo","2007 Broughton Dr","Gloucester","","","","","","","","","Mozilla/5.0 (iPhone; CPU iPhone OS 13_6_1 like Mac OS X) AppleWebKit/605.1.15 (KHTML, like Gecko) Mobile/15E148 LightSpeed [FBAN/MessengerLiteForiOS;FBAV/280.0.0.32.106;FBBV/241469109;FBDV/iPhone12,3;FBMD/iPhone;FBSN/iOS;FBSV/13.6.1;FBSS/3;FBCR/;FBID/phone;FBLC/en;FBOP/0]","https://connectedhomecare.com/chat-applicant/",""
"4554","Feb 25, 2020","sunny","badore","beverly","Gloucester","Companion Homemaker","beverly","ggldyn20","","","","","","Mozilla/5.0 (Windows NT 10.0; Win64; x64) AppleWebKit/537.36 (KHTML, like Gecko) Chrome/79.0.3945.130 Safari/537.36","https://connectedhomecare.com/home-care-careers/homemaker-companion-caregiver-job-beverly-part-time-",""
"6077","Sep 13, 2020","Radostina","Simard","Belmont","Waltham","Supportive Care Aide","belmont","google_jobs_apply","organic","","","google_jobs_apply","","Mozilla/5.0 (Windows NT 10.0; Win64; x64) AppleWebKit/537.36 (KHTML, like Gecko) Chrome/85.0.4183.102 Safari/537.36","https://connectedhomecare.com/home-care-careers/supportive-home-care-aide-job-belmont-part-time-q210",""
"6050","Sep 10, 2020","Bethany","Beauregard","Ipswich","Gloucester","Homemaker","ipswich","google_jobs_apply","organic","","","google_jobs_apply","","Mozilla/5.0 (Macintosh; Intel Mac OS X 10_15_5) AppleWebKit/605.1.15 (KHTML, like Gecko) Version/13.1.1 Safari/605.1.15","https://connectedhomecare.com/home-care-careers/homemaker-home-care-job-ipswich-part-time-q209554/?u",""
"6036","Sep 08, 2020","Mishel","Taco Lombeida","Waltham","Waltham","","","","","","","","","Mozilla/5.0 (iPhone; CPU iPhone OS 13_6_1 like Mac OS X) AppleWebKit/605.1.15 (KHTML, like Gecko) Version/13.1.2 Mobile/15E148 Safari/604.1","https://connectedhomecare.com/chat-applicant/",""
"6034","Sep 08, 2020","Roldine","Chery","Dorchester","Waltham","Homemaker","jamaica plain","","","","","","","Mozilla/5.0 (iPhone; CPU iPhone OS 13_6_1 like Mac OS X) AppleWebKit/605.1.15 (KHTML, like Gecko) Mobile/15E148 Indeed App 64.0","https://connectedhomecare.com/home-care-careers/homemaker-job-jamaica-plain-full-time-q209742/",""
"5945","Aug 31, 2020","Phile","Shongwe","Waltham","Waltham","Homemaker","waltham","ggldyn20","","","","","","Mozilla/5.0 (Windows NT 10.0; Win64; x64) AppleWebKit/537.36 (KHTML, like Gecko) Chrome/84.0.4147.135 Safari/537.36","https://connectedhomecare.com/home-care-careers/homemaker-home-care-aide-job-waltham-part-time-q2096",""
"5933","Aug 28, 2020","Bukky","Usunalele","Beverly","Gloucester","","","","","","","","","Mozilla/5.0 (Linux; Android 8.1.0; SAMSUNG SM-J727T1) AppleWebKit/537.36 (KHTML, like Gecko) SamsungBrowser/12.1 Chrome/79.0.3945.136 Mobile Safari/537.36","",""
"6019","Sep 05, 2020","Nicholas","Colleran","Beverly","Gloucester","","","","","","","","","Mozilla/5.0 (Linux; Android 9; SM-J737T1 Build/PPR1.180610.011; wv) AppleWebKit/537.36 (KHTML, like Gecko) Version/4.0 Chrome/84.0.4147.125 Mobile Safari/537.36 [FB_IAB/Orca-Android;FBAV/277.0.0.12.116;]","https://connectedhomecare.com/social/",""
"5463","Jul 08, 2020","Nasro","Adan","Boston","Waltham","Companion Caregiver","boston","","","","","","","Mozilla/5.0 (Windows NT 6.3; WOW64; Trident/7.0; rv:11.0) like Gecko","https://connectedhomecare.com/home-care-careers/companion-caregiver-job-boston-part-time-q209223/",""
"6007","Sep 03, 2020","Tomi-Lou","Mckechnie","Gloucester","Gloucester","","","","","","","","","Mozilla/5.0 (iPad; CPU OS 12_4 like Mac OS X) AppleWebKit/605.1.15 (KHTML, like Gecko) GSA/123.0.328412499 Mobile/15E148 Safari/604.1","",""
"5939","Aug 30, 2020","Bill","Porter","Gloucester","Gloucester","","","","","","","","","Mozilla/5.0 (Linux; Android 9; SM-J737V Build/PPR1.180610.011; wv) AppleWebKit/537.36 (KHTML, like Gecko) Version/4.0 Chrome/85.0.4183.81 Mobile Safari/537.36 [FB_IAB/Orca-Android;FBAV/279.0.0.19.120;]","https://connectedhomecare.com/social/",""
"5990","Sep 02, 2020","Aliza","Claflin","Waltham","Waltham","","","","","","","","","Mozilla/5.0 (Linux; Android 10; Pixel 4 Build/QQ3A.200805.001; wv) AppleWebKit/537.36 (KHTML, like Gecko) Version/4.0 Chrome/85.0.4183.81 Mobile Safari/537.36 [FB_IAB/Orca-Android;FBAV/279.0.0.19.120;]","https://connectedhomecare.com/social/",""
"5902","Aug 26, 2020","Jacquelynn","Flores","Waltham","Waltham","","","","","","","","","Mozilla/5.0 (iPhone; CPU iPhone OS 13_6_1 like Mac OS X) AppleWebKit/605.1.15 (KHTML, like Gecko) Mobile/15E148 LightSpeed [FBAN/MessengerLiteForiOS;FBAV/278.0.0.48.102;FBBV/239438966;FBDV/iPhone11,8;FBMD/iPhone;FBSN/iOS;FBSV/13.6.1;FBSS/2;FBCR/;FBID/phone;FBLC/en;FBOP/0]","https://connectedhomecare.com/social/",""
"5977","Sep 01, 2020","Nicole","Litvin","Chestnut Hill","Waltham","Companion Homemaker","needham","","","","","","","Mozilla/5.0 (Windows NT 10.0; Win64; x64) AppleWebKit/537.36 (KHTML, like Gecko) Chrome/84.0.4147.135 Safari/537.36","https://connectedhomecare.com/home-care-careers/companion-homemaker-flexible-hours-job-needham-part-",""
"5860","Aug 21, 2020","Sarah","Bundy","Gloucester","Gloucester","","","","","","","","","Mozilla/5.0 (iPhone; CPU iPhone OS 13_6 like Mac OS X) AppleWebKit/605.1.15 (KHTML, like Gecko) Version/13.1.2 Mobile/15E148 Safari/604.1","https://connectedhomecare.com/social/",""
"5859","Aug 21, 2020","Hannah","Smith","Ipswich","Gloucester","Supportive Care Aide","gloucester","","","","","","","Mozilla/5.0 (Windows NT 10.0; Win64; x64) AppleWebKit/537.36 (KHTML, like Gecko) Chrome/84.0.4147.135 Safari/537.36","https://connectedhomecare.com/home-care-careers/supportive-caregiver-job-gloucester-full-time-q20890",""
"5801","Aug 13, 2020","Loudemie","lamour","Waltham","Waltham","","","","","","","","","Mozilla/5.0 (Linux; Android 10; SM-N975U) AppleWebKit/537.36 (KHTML, like Gecko) Chrome/84.0.4147.125 Mobile Safari/537.36","https://connectedhomecare.com/referral/","Shelsie"
"5691","Jul 31, 2020","Nkaya","John","Hyde Park","Waltham","Home Health Aide","newton","","","","","","","Mozilla/5.0 (iPhone; CPU iPhone OS 13_5_1 like Mac OS X) AppleWebKit/605.1.15 (KHTML, like Gecko) Version/13.1.1 Mobile/15E148 Safari/604.1","https://connectedhomecare.com/home-care-careers/home-health-aide-job-newton-part-time-q209088/","Erica"
"5400","Jun 27, 2020","Quianna","parker","Brockton","Waltham","","","","","","","","","Mozilla/5.0 (Linux; Android 10; SM-G973U) AppleWebKit/537.36 (KHTML, like Gecko) Chrome/83.0.4103.106 Mobile Safari/537.36","https://connectedhomecare.com/referral/","Chani Dinkins"
"5725","Aug 05, 2020","Khelyia","Serrano","Brighton","Waltham","","","","","","","","","Mozilla/5.0 (iPhone; CPU iPhone OS 13_5_1 like Mac OS X) AppleWebKit/605.1.15 (KHTML, like Gecko) Mobile/15E148 LightSpeed [FBAN/MessengerLiteForiOS;FBAV/276.0.0.32.107;FBBV/235827610;FBDV/iPhone11,8;FBMD/iPhone;FBSN/iOS;FBSV/13.5.1;FBSS/2;FBCR/;FBID/phone;FBLC/en;FBOP/0]","https://connectedhomecare.com/social/",""
"5751","Aug 08, 2020","Rebecca","Nakabuye","Waltham","Waltham","Home Health Aide","waltham","google_jobs_apply","organic","","","google_jobs_apply","","Mozilla/5.0 (iPhone; CPU iPhone OS 13_5_1 like Mac OS X) AppleWebKit/605.1.15 (KHTML, like Gecko) Version/13.1.1 Mobile/15E148 Safari/604.1","https://connectedhomecare.com/home-care-careers/hha-job-waltham-part-time-q209089/",""
"5298","Jun 10, 2020","Alicia","Stuart","Gloucester","Gloucester","","","","","","","","","Mozilla/5.0 (iPhone; CPU iPhone OS 13_4_1 like Mac OS X) AppleWebKit/605.1.15 (KHTML, like Gecko) Version/13.1 Mobile/15E148 Safari/604.1","https://connectedhomecare.com/social/",""
"5570","Jul 17, 2020","Julissa","Rodriguez","SOUTH HAMILTON","Gloucester","Supportive Care Aide","hamilton","","","","","","","Mozilla/5.0 (X11; CrOS aarch64 13020.55.0) AppleWebKit/537.36 (KHTML, like Gecko) Chrome/83.0.4103.77 Safari/537.36","https://connectedhomecare.com/home-care-careers/supportive-home-care-aide-job-hamilton-full-time-q20",""
"5513","Jul 13, 2020","Marie","Danier","Everett Ma","Waltham","Companion Homemaker","watertown","","","","","","","Mozilla/5.0 (iPhone; CPU iPhone OS 10_2_1 like Mac OS X) AppleWebKit/602.4.6 (KHTML, like Gecko) Version/10.0 Mobile/14D27 Safari/602.1","https://connectedhomecare.com/home-care-careers/homemaker-companion-caregiver-job-watertown-part-tim",""
"5623","Jul 23, 2020","Roberta","Munoz","Waltham","Waltham","","","","","","","","","Mozilla/5.0 (Linux; Android 10; SM-G973U Build/QP1A.190711.020; wv) AppleWebKit/537.36 (KHTML, like Gecko) Version/4.0 Chrome/84.0.4147.89 Mobile Safari/537.36 [FB_IAB/Orca-Android;FBAV/274.0.0.18.120;]","https://connectedhomecare.com/social/",""
"5613","Jul 22, 2020","Carla","Pereira","Jamaica Plain","Waltham","","","","","","","","","Mozilla/5.0 (iPhone; CPU iPhone OS 13_5_1 like Mac OS X) AppleWebKit/605.1.15 (KHTML, like Gecko) Mobile/15E148 LightSpeed [FBAN/MessengerLiteForiOS;FBAV/273.0.0.42.115;FBBV/230969598;FBDV/iPhone10,5;FBMD/iPhone;FBSN/iOS;FBSV/13.5.1;FBSS/3;FBCR/;FBID/phone;FBLC/en-US;FBOP/0]","https://connectedhomecare.com/social/",""
"5595","Jul 19, 2020","Erica","Costa","Brockton","Waltham","Companion Caregiver","newton","","","","","","","Mozilla/5.0 (iPhone; CPU iPhone OS 13_5_1 like Mac OS X) AppleWebKit/605.1.15 (KHTML, like Gecko) GSA/116.0.320332172 Mobile/17F80 Safari/604.1","https://connectedhomecare.com/home-care-careers/companion-caregiver-job-newton-part-time-q209217/",""
"5511","Jul 13, 2020","Dapheny","Sequeira","boston","Waltham","Home Health Aide","boston","","","","","","","Mozilla/5.0 (Macintosh; Intel Mac OS X 10_14_6) AppleWebKit/605.1.15 (KHTML, like Gecko) Version/13.1.1 Safari/605.1.15","https://connectedhomecare.com/",""
"5505","Jul 13, 2020","HENRY","SSALI","Waltham","Waltham","Home Health Aide","weston","ggldyn20","","","","","","Mozilla/5.0 (iPhone; CPU iPhone OS 14_0 like Mac OS X) AppleWebKit/605.1.15 (KHTML, like Gecko) Version/14.0 Mobile/15E148 Safari/604.1","https://connectedhomecare.com/home-care-careers/hha-job-weston-full-time-q209350/",""
"5516","Jul 14, 2020","Theresa","Murch","Gloucester","Gloucester","Companion Caregiver","gloucester","ggldyn20","adwords","hha-locations","","ext","","Mozilla/5.0 (Linux; Android 10; SM-G965U Build/QP1A.190711.020) AppleWebKit/537.36 (KHTML, like Gecko) Chrome/83.0.4103.106 Mobile Safari/537.36","https://connectedhomecare.com/home-care-careers/companion-flexible-hours-job-gloucester-part-time-q2",""
"5449","Jul 07, 2020","Maizi","Swenson-Heussi","Essex","Gloucester","Personal Care Aide","essex","","","","","","","Mozilla/5.0 (Windows NT 10.0; Win64; x64) AppleWebKit/537.36 (KHTML, like Gecko) Chrome/83.0.4103.116 Safari/537.36","https://connectedhomecare.com/home-care-careers/personal-care-home-care-aide-job-essex-part-time-q20",""
"5436","Jul 02, 2020","Luzbel","Ramirez","Gloucester","Gloucester","Homemaker","lynn","","","","","","","Mozilla/5.0 (iPhone; CPU iPhone OS 13_5_1 like Mac OS X) AppleWebKit/605.1.15 (KHTML, like Gecko) Version/13.1.1 Mobile/15E148 Safari/604.1","https://connectedhomecare.com/home-care-careers/homemaker-flexible-hours-job-lynn-full-time-q208307/",""
"5447","Jul 06, 2020","Stencia","Bastien","Natick","Waltham","","","","","","","","","Mozilla/5.0 (Macintosh; Intel Mac OS X 10_14_6) AppleWebKit/537.36 (KHTML, like Gecko) Chrome/83.0.4103.116 Safari/537.36","",""
"5503","Jul 13, 2020","Doreen","Dwomoh","Hyde Park","Waltham","Home Health Aide","dedham","ziprecruiter","","","","","","Mozilla/5.0 (Linux; Android 8.0.0; SAMSUNG SM-G930U) AppleWebKit/537.36 (KHTML, like Gecko) SamsungBrowser/10.2 Chrome/71.0.3578.99 Mobile Safari/537.36","https://connectedhomecare.com/home-care-careers/home-health-aide-hha-chha-job-dedham-full-time-q2093",""
"5422","Jun 30, 2020","Laura","Thornton","Medway","Waltham","Homemaker","franklin","google_jobs_apply","organic","","","google_jobs_apply","","Mozilla/5.0 (iPhone; CPU iPhone OS 13_5_1 like Mac OS X) AppleWebKit/605.1.15 (KHTML, like Gecko) Version/13.1.1 Mobile/15E148 Safari/604.1","https://connectedhomecare.com/",""
"5433","Jul 02, 2020","Ebun","Lawal","Brockton","Waltham","Home Health Aide","beverly","ziprecruiter","","","","","","Mozilla/5.0 (iPhone; CPU iPhone OS 13_5_1 like Mac OS X) AppleWebKit/605.1.15 (KHTML, like Gecko) Version/13.1.1 Mobile/15E148 Safari/604.1","https://connectedhomecare.com/home-care-careers/home-health-aide-hha-cna-job-beverly-full-time-q2077",""
"5389","Jun 24, 2020","Kayla","Waitt","GLOUCESTER","Gloucester","","","","","","","","","Mozilla/5.0 (Linux; Android 9; LM-X220) AppleWebKit/537.36 (KHTML, like Gecko) Chrome/83.0.4103.106 Mobile Safari/537.36","https://connectedhomecare.com/referral/","Julie Lounsbury"
"3641","Dec 13, 2019","Moses","Tagayala","Waltham","Waltham","Home Health Aide","needham","apply-online-applicant","","","","","","Mozilla/5.0 (Linux; Android 9; Nokia 7.2) AppleWebKit/537.36 (KHTML, like Gecko) Chrome/79.0.3945.79 Mobile Safari/537.36","https://connectedhomecare.com/home-care-careers/hha-job-needham-full-time-q202213/",""
"5305","Jun 12, 2020","Carolyn","Senoga","Watertown","Waltham","Home Health Aide","newton","apply-online-applicant","","","","","","Mozilla/5.0 (iPhone; CPU iPhone OS 13_5_1 like Mac OS X) AppleWebKit/605.1.15 (KHTML, like Gecko) Version/13.1.1 Mobile/15E148 Safari/604.1","https://connectedhomecare.com/home-care-careers/home-health-aide-job-newton-part-time-q207927/",""
"5374","Jun 22, 2020","Laurie","Carr","Beverly","Gloucester","Personal Care Aide","beverly","","","","","","","Mozilla/5.0 (Linux; Android 9; SM-A205U) AppleWebKit/537.36 (KHTML, like Gecko) Chrome/74.0.3729.136 Mobile Safari/537.36","https://connectedhomecare.com/home-care-careers/personal-care-caregiver-job-beverly-part-time-q20748",""
"5333","Jun 16, 2020","Mithni","Lagene","Waltham","Waltham","Home Health Aide","brighton","","","","","","","Mozilla/5.0 (Windows NT 10.0; Win64; x64) AppleWebKit/537.36 (KHTML, like Gecko) Chrome/70.0.3538.102 Safari/537.36 Edge/18.18363","https://connectedhomecare.com/home-care-careers/home-health-aide-hha-job-brighton-part-time-q207940/",""
"5113","May 14, 2020","Taylor","Nelson","Littleton","Waltham","Home Health Aide","littleton","google_jobs_apply","organic","","","google_jobs_apply","","Mozilla/5.0 (iPhone; CPU iPhone OS 12_4_5 like Mac OS X) AppleWebKit/605.1.15 (KHTML, like Gecko) Version/12.1.2 Mobile/15E148 Safari/604.1","https://connectedhomecare.com/",""
"5006","Apr 27, 2020","Lindsay","Louis","Waltham","Waltham","","","","","","","","","Mozilla/5.0 (iPhone; CPU iPhone OS 13_3_1 like Mac OS X) AppleWebKit/605.1.15 (KHTML, like Gecko) Mobile/15E148 Indeed App 47.0","https://messages.indeed.com/conversations/RFJBRElTOjo6NTI3MjM4LTI2MDIw/?from=homepage_messagesModule",""
"5261","Jun 04, 2020","Angelina","Abella","dedham","Waltham","","","","","","","","","Mozilla/5.0 (Linux; Android 10; SM-N975U Build/QP1A.190711.020; wv) AppleWebKit/537.36 (KHTML, like Gecko) Version/4.0 Chrome/83.0.4103.83 Mobile Safari/537.36 [FB_IAB/Orca-Android;FBAV/267.0.0.15.119;]","https://connectedhomecare.com/social/",""
"5158","May 21, 2020","Lorena","Rodrigues","Watertown","Waltham","Home Health Aide","watertown","","","","","","","Mozilla/5.0 (Windows NT 10.0; Win64; x64; rv:76.0) Gecko/20100101 Firefox/76.0","https://connectedhomecare.com/home-care-careers/home-health-aide-hha-chha-job-watertown-part-time-q2",""
"5249","Jun 02, 2020","Rose","Siragusa","Gloucester","Gloucester","Companion Homemaker","gloucester","","","","","","","Mozilla/5.0 (iPhone; CPU iPhone OS 13_4_1 like Mac OS X) AppleWebKit/605.1.15 (KHTML, like Gecko) Version/13.1 Mobile/15E148 Safari/604.1","https://connectedhomecare.com/home-care-careers/companion-homemaker-flexible-hours-job-gloucester-fu",""
"5055","May 02, 2020","Felicia","Campagnone","Beverly","Gloucester","","","","","","","","","Mozilla/5.0 (iPhone; CPU iPhone OS 13_4_1 like Mac OS X) AppleWebKit/605.1.15 (KHTML, like Gecko) Mobile/15E148 LightSpeed [FBAN/MessengerLiteForiOS;FBAV/262.1.0.71.117;FBBV/211898162;FBDV/iPhone11,8;FBMD/iPhone;FBSN/iOS;FBSV/13.4.1;FBSS/2;FBCR/;FBID/phone;FBLC/en_US;FBOP/0]","https://connectedhomecare.com/social/",""
"5068","May 06, 2020","kate","picard","rockport","Gloucester","Companion Homemaker","gloucester","","","","","","","Mozilla/5.0 (Windows NT 10.0; Win64; x64) AppleWebKit/537.36 (KHTML, like Gecko) Chrome/81.0.4044.122 Safari/537.36","https://connectedhomecare.com/home-care-careers/companion-homemaker-job-gloucester-part-time-q206841",""
"5121","May 15, 2020","Julie","Gallagher","Topsfield","Gloucester","","","","","","","","","Mozilla/5.0 (Macintosh; Intel Mac OS X 10_13_6) AppleWebKit/537.36 (KHTML, like Gecko) Chrome/81.0.4044.138 Safari/537.36","https://connectedhomecare.com/referral/","Yes, referred by Sharon Scarlata"
"4962","Apr 22, 2020","Jaliyah","Spencer","Mattapan","Waltham","Home Health Aide","allston","","","","","","","Mozilla/5.0 (iPhone; CPU iPhone OS 13_3 like Mac OS X) AppleWebKit/605.1.15 (KHTML, like Gecko) Version/13.0.4 Mobile/15E148 Safari/604.1","https://connectedhomecare.com/home-care-careers/home-health-aide-hha-chha-job-allston-full-time-q206",""
"4928","Apr 19, 2020","Hodan","Ahmed","Boston","Waltham","Homemaker","roxbury","","","","","","","Mozilla/5.0 (iPhone; CPU iPhone OS 13_3_1 like Mac OS X) AppleWebKit/605.1.15 (KHTML, like Gecko) Version/13.0.5 Mobile/15E148 Safari/604.1","https://connectedhomecare.com/home-care-careers/homemaker-home-care-job-roxbury-full-time-q207034/","Idil Jama"
"1349","Apr 14, 2019","Gianni Thara","Saint Jean","Randolph","Waltham","","","google","adwords","hha","","waltham-hha-jobapp","","Mozilla/5.0 (iPhone; CPU iPhone OS 12_2 like Mac OS X) AppleWebKit/605.1.15 (KHTML, like Gecko) Version/12.1 Mobile/15E148 Safari/604.1","https://www.google.com/","No"
"4920","Apr 18, 2020","Mithni","Janvier","Norwood","Waltham","Homemaker","roxbury","","","","","","","Mozilla/5.0 (Linux; Android 10; Pixel XL) AppleWebKit/537.36 (KHTML, like Gecko) Chrome/80.0.3987.162 Mobile Safari/537.36","https://connectedhomecare.com/home-care-careers/homemaker-home-care-job-roxbury-full-time-q207034/","Yes"
"4934","Apr 20, 2020","Rosa","Cruz","Waltham","Waltham","","","","","","","","","Mozilla/5.0 (Linux; Android 9; SM-N950U) AppleWebKit/537.36 (KHTML, like Gecko) Chrome/81.0.4044.111 Mobile Safari/537.36","https://www.google.com/","Marie Rose Jean Jacques"
"4940","Apr 20, 2020","chani","DINKINS","BOSTON","Waltham","Homemaker","waltham","","","","","","","Mozilla/5.0 (Windows NT 6.3; Win64; x64) AppleWebKit/537.36 (KHTML, like Gecko) Chrome/80.0.3987.163 Safari/537.36","https://connectedhomecare.com/home-care-careers/homemaker-home-care-aide-job-waltham-full-time-q2070","TIFFANY BOWMAN"
"4943","Apr 20, 2020","Marie","McDaniels","Dorchester","Waltham","Homemaker","roxbury","","","","","","","Mozilla/5.0 (iPhone; CPU iPhone OS 13_3_1 like Mac OS X) AppleWebKit/605.1.15 (KHTML, like Gecko) Version/13.0.5 Mobile/15E148 Safari/604.1","https://connectedhomecare.com/home-care-careers/homemaker-home-care-job-roxbury-full-time-q207034/","Lucy"
"4850","Apr 06, 2020","Veronica Yeboah","ASIEDU","East Hartford","Waltham","","","","","","","","","Mozilla/5.0 (Windows NT 10.0; Win64; x64) AppleWebKit/537.36 (KHTML, like Gecko) Chrome/80.0.3987.149 Safari/537.36","https://mail.google.com/mail/u/4/",""
"4864","Apr 11, 2020","Jemimah","Balla","Sharon","Waltham","","","","","","","","","Mozilla/5.0 (iPhone; CPU iPhone OS 13_3_1 like Mac OS X) AppleWebKit/605.1.15 (KHTML, like Gecko) Version/13.0.5 Mobile/15E148 Safari/604.1","",""
"4758","Mar 20, 2020","Nathan","Lafata","Gloucester","Gloucester","Personal Care Aide","gloucester","","","","","","","Mozilla/5.0 (Windows NT 10.0; Win64; x64) AppleWebKit/537.36 (KHTML, like Gecko) Chrome/80.0.3987.149 Safari/537.36","https://connectedhomecare.com/home-care-careers/personal-care-aide-job-gloucester-full-time-q204610/",""
"4632","Mar 04, 2020","Christina","Montanari","Danvers","Gloucester","Supportive Care Aide","rowley","","","","","","","Mozilla/5.0 (Macintosh; Intel Mac OS X 10_10_5) AppleWebKit/603.3.8 (KHTML, like Gecko) Version/10.1.2 Safari/603.3.8","https://connectedhomecare.com/home-care-careers/supportive-home-care-aide-job-rowley-full-time-q2047",""
"4616","Mar 02, 2020","Corinne","Knudson-DaCosta","Haverhill","Gloucester","Homemaker","beverly","","","","","","","Mozilla/5.0 (Linux; Android 10; SM-G970U) AppleWebKit/537.36 (KHTML, like Gecko) Chrome/77.0.3865.92 Mobile Safari/537.36","https://connectedhomecare.com/home-care-careers/homemaker-caregiver-job-beverly-part-time-q205173/",""
"4516","Feb 21, 2020","Meselu","Gendebo","Cambridge","Waltham","Home Health Aide","watertown","","","","","","","Mozilla/5.0 (Windows NT 10.0; Win64; x64) AppleWebKit/537.36 (KHTML, like Gecko) Chrome/79.0.3945.130 Safari/537.36","https://connectedhomecare.com/home-care-careers/home-health-aide-hha-cna-job-watertown-full-time-q20",""
"4588","Feb 27, 2020","Ronald","ssemanda","Waltham","Waltham","Companion Homemaker","waltham","ggldyn20","","","","","","Mozilla/5.0 (Linux; Android 8.0.0; SM-G935T) AppleWebKit/537.36 (KHTML, like Gecko) Chrome/78.0.3904.62 Mobile Safari/537.36","https://connectedhomecare.com/home-care-careers/companion-homemaker-flexible-hours-job-waltham-part-",""
"4300","Jan 29, 2020","Christina","Thelusma","Dedham","Waltham","","","","","","","","","Mozilla/5.0 (X11; CrOS x86_64 12607.82.0) AppleWebKit/537.36 (KHTML, like Gecko) Chrome/79.0.3945.123 Safari/537.36","https://www.google.com/",""
"4559","Feb 25, 2020","Patricia","Sarfo","West Roxbury","Waltham","Companion Caregiver","brookline","","","","","","","Mozilla/5.0 (iPhone; CPU iPhone OS 13_1_2 like Mac OS X) AppleWebKit/605.1.15 (KHTML, like Gecko) Version/13.0.1 Mobile/15E148 Safari/604.1","https://connectedhomecare.com/home-care-careers/companion-home-care-job-brookline-full-time-q205102/",""
"4560","Feb 25, 2020","Rixi","Fuentes","Waltham","Waltham","Companion Caregiver","waltham","","","","","","","Mozilla/5.0 (iPhone; CPU iPhone OS 13_3_1 like Mac OS X) AppleWebKit/605.1.15 (KHTML, like Gecko) Version/13.0.5 Mobile/15E148 Safari/604.1","https://connectedhomecare.com/",""
"4548","Feb 24, 2020","Chiselwa","Mulenga","Waltham","Waltham","Home Health Aide","waltham","","","","","","","Mozilla/5.0 (Windows NT 10.0; Win64; x64) AppleWebKit/537.36 (KHTML, like Gecko) Chrome/79.0.3945.130 Safari/537.36","https://connectedhomecare.com/home-care-careers/certified-home-health-aide-job-waltham-full-time-q20",""
"4405","Feb 07, 2020","Alexandra","Torero","Gloucester","Gloucester","Home Health Aide","gloucester","","","","","","","Mozilla/5.0 (iPhone; CPU iPhone OS 13_3 like Mac OS X) AppleWebKit/605.1.15 (KHTML, like Gecko) Version/13.0.4 Mobile/15E148 Safari/604.1","https://connectedhomecare.com/home-care-careers/home-health-aide-job-gloucester-part-time-q203310/",""
"4558","Feb 25, 2020","Suzanna","Runnells","GLOUCESTER","Gloucester","","","ggldyn20","adwords","hha-locations","","ext","","Mozilla/5.0 (Linux; Android 9; LM-Q720) AppleWebKit/537.36 (KHTML, like Gecko) Chrome/79.0.3945.93 Mobile Safari/537.36","https://www.google.com/","Cheryl Knowlton"
"4521","Feb 21, 2020","Diana","Fournier","Haverhill","Gloucester","Home Health Aide","georgetown","","","","","","","Mozilla/5.0 (iPhone; CPU iPhone OS 13_3 like Mac OS X) AppleWebKit/605.1.15 (KHTML, like Gecko) Version/13.0.4 Mobile/15E148 Safari/604.1","https://connectedhomecare.com/",""
"3591","Dec 08, 2019","Katia","Miranda","Beverly","Gloucester","Companion Homemaker","wenham","google_jobs_apply","organic","","","google_jobs_apply","","Mozilla/5.0 (Linux; Android 9; LM-X220) AppleWebKit/537.36 (KHTML, like Gecko) Chrome/74.0.3729.136 Mobile Safari/537.36","https://connectedhomecare.com/home-care-careers/companion-job-wenham-31181/?utm_campaign=google_jobs",""
"4194","Jan 24, 2020","Alex","Mutaki","waltham","Waltham","Personal Care Aide","waltham","","","","","","","Mozilla/5.0 (Windows NT 10.0; Win64; x64) AppleWebKit/537.36 (KHTML, like Gecko) Chrome/79.0.3945.130 Safari/537.36","https://connectedhomecare.com/home-care-careers/personal-care-home-care-aide-job-waltham-part-time-q","No"
"4384","Feb 06, 2020","Frank","Emezu","Norwood","Waltham","Homemaker","dedham","","","","","","","Mozilla/5.0 (Windows NT 10.0; Win64; x64) AppleWebKit/537.36 (KHTML, like Gecko) Chrome/80.0.3987.87 Safari/537.36","https://connectedhomecare.com/home-care-careers/homemaker-home-care-job-dedham-full-time-q204148/",""
"4268","Jan 28, 2020","Joseph","Bravo","Newton","Waltham","Homemaker","newton","google_jobs_apply","organic","","","google_jobs_apply","","Mozilla/5.0 (Windows NT 10.0; Win64; x64) AppleWebKit/537.36 (KHTML, like Gecko) Chrome/79.0.3945.130 Safari/537.36","https://connectedhomecare.com/home-care-careers/homemaker-home-care-aide-job-newton-part-time-q20391",""
"4168","Jan 23, 2020","Heidi","Heard","Gloucester","Gloucester","","","","","","","","","Mozilla/5.0 (iPhone; CPU iPhone OS 12_4_1 like Mac OS X) AppleWebKit/605.1.15 (KHTML, like Gecko) Version/12.1.2 Mobile/15E148 Safari/604.1","https://mail.google.com/mail/mu/mp/282/",""
"4221","Jan 25, 2020","Mikelda","Saintil","Waltham","Waltham","Home Health Aide","waltham","","","","","","","Mozilla/5.0 (Windows NT 10.0; Win64; x64) AppleWebKit/537.36 (KHTML, like Gecko) Chrome/70.0.3538.102 Safari/537.36 Edge/18.18363","https://connectedhomecare.com/home-care-careers/hha-chha-flexible-hours-job-waltham-part-time-q20335",""
"4282","Jan 29, 2020","Michelle","Zephyr","Randolph","Waltham","Home Health Aide","newton","ziprecruiter","","","","","","Mozilla/5.0 (iPhone; CPU iPhone OS 12_1_2 like Mac OS X) AppleWebKit/605.1.15 (KHTML, like Gecko) Version/12.0 Mobile/15E148 Safari/604.1","https://connectedhomecare.com/home-care-careers/home-health-aide-hha-cna-job-newton-part-time-q20335",""
"4195","Jan 24, 2020","Kelly","Moses","Gloucester","Gloucester","Home Health Aide","gloucester","apply-online-applicant","","","","","","Mozilla/5.0 (iPhone; CPU iPhone OS 13_3 like Mac OS X) AppleWebKit/605.1.15 (KHTML, like Gecko) Version/13.0.4 Mobile/15E148 Safari/604.1","https://connectedhomecare.com/home-care-careers/hha-job-gloucester-full-time-q203536/",""
"4199","Jan 24, 2020","Thomas","Gomes","Needham","Waltham","Companion Homemaker","wellesley","","","","","","","Mozilla/5.0 (Macintosh; Intel Mac OS X 10_15_2) AppleWebKit/605.1.15 (KHTML, like Gecko) Version/13.0.4 Safari/605.1.15","https://connectedhomecare.com/home-care-careers/companion-homemaker-job-wellesley-part-time-q204033/",""
"3772","Dec 25, 2019","Maria","Namugga","Malden","Waltham","Supportive Care Aide","malden","google_jobs_apply","organic","","","google_jobs_apply","","Mozilla/5.0 (Linux; Android 9; SM-G955U) AppleWebKit/537.36 (KHTML, like Gecko) Chrome/78.0.3904.62 Mobile Safari/537.36","https://connectedhomecare.com/home-care-careers/supportive-home-care-aide-job-malden-part-time-q2016",""
"4246","Jan 27, 2020","Shannon","Straube","Rockport","Gloucester","Home Health Aide","gloucester","","","","","","","Mozilla/5.0 (iPhone; CPU iPhone OS 13_3 like Mac OS X) AppleWebKit/605.1.15 (KHTML, like Gecko) Version/13.0.4 Mobile/15E148 Safari/604.1","https://connectedhomecare.com/home-care-careers/hha-job-gloucester-full-time-q203536/","Yes"
"3645","Dec 13, 2019","Rose Lunide","Jn Mardy","Waltham","Waltham","Home Health Aide","waltham","","","","","","","Mozilla/5.0 (iPhone; CPU iPhone OS 13_1_3 like Mac OS X) AppleWebKit/605.1.15 (KHTML, like Gecko) Version/13.0.1 Mobile/15E148 Safari/604.1","https://connectedhomecare.com/home-care-careers/home-health-aide-hha-chha-job-waltham-part-time-q201","Yes"
"4115","Jan 21, 2020","Eglys","Angeles","Lawrence","Waltham","Home Health Aide","weston","apply-online-applicant","","","","","","Mozilla/5.0 (Linux; Android 9; GM1915) AppleWebKit/537.36 (KHTML, like Gecko) Chrome/78.0.3904.90 Mobile Safari/537.36","https://connectedhomecare.com/home-care-careers/home-health-aide-hha-chha-job-weston-full-time-q2035","Estephanie Martinez"
"3928","Jan 09, 2020","Josiane","PETIT-FRERE","WALTHAM","Waltham","Personal Care Aide","waltham","","","","","","","Mozilla/5.0 (Windows NT 6.1; WOW64) AppleWebKit/537.36 (KHTML, like Gecko) Chrome/79.0.3945.88 Safari/537.36","https://connectedhomecare.com/home-care-careers/personal-care-home-care-aide-job-waltham-part-time-q","Yes"
"3916","Jan 09, 2020","Babatunde","Odunuyi","Roslindale","Waltham","Home Health Aide","waltham","","","","","","","Mozilla/5.0 (iPhone; CPU iPhone OS 13_3 like Mac OS X) AppleWebKit/605.1.15 (KHTML, like Gecko) Version/13.0.4 Mobile/15E148 Safari/604.1","https://connectedhomecare.com/home-care-careers/home-health-aide-hha-chha-job-waltham-part-time-q201","Taiwo Odunuyi"
"3949","Jan 12, 2020","Sharon","Martin","Beverly","Gloucester","Companion Homemaker","manchester-by-the-sea","","","","","","","Mozilla/5.0 (Macintosh; Intel Mac OS X 10_15) AppleWebKit/605.1.15 (KHTML, like Gecko) Version/13.0.4 Safari/605.1.15","https://connectedhomecare.com/home-care-careers/homemaker-companion-job-manchester-by-the-sea-full-t",""
"3817","Dec 31, 2019","Jayla","Lok-Price","Gloucester","Gloucester","","","","","","","","","Mozilla/5.0 (iPhone; CPU iPhone OS 11_2_1 like Mac OS X) AppleWebKit/604.4.7 (KHTML, like Gecko) Version/11.0 Mobile/15C153 Safari/604.1","",""
"3843","Jan 03, 2020","Alexia","Thompson","Gloucester","Gloucester","","","","","","","","","Mozilla/5.0 (iPhone; CPU iPhone OS 13_3 like Mac OS X) AppleWebKit/605.1.15 (KHTML, like Gecko) Version/13.0.4 Mobile/15E148 Safari/604.1","https://www.google.com/",""
"3862","Jan 06, 2020","Praxides","MEDINA","Attleboro","Waltham","Companion Homemaker","milford","","","","","","","Mozilla/5.0 (Linux; Android 9; SM-G965U) AppleWebKit/537.36 (KHTML, like Gecko) Chrome/79.0.3945.93 Mobile Safari/537.36","https://connectedhomecare.com/home-care-careers/home-care-aide-homemaker-companion-job-milford-part-",""
"3918","Jan 09, 2020","Joanna","Baez","Brighton","Waltham","Home Health Aide","waltham","","","","","","","Mozilla/5.0 (iPhone; CPU iPhone OS 13_3 like Mac OS X) AppleWebKit/605.1.15 (KHTML, like Gecko) Version/13.0.4 Mobile/15E148 Safari/604.1","https://connectedhomecare.com/home-care-careers/home-health-aide-hha-chha-job-waltham-part-time-q201","Keisa rosa"
"3804","Dec 29, 2019","Ethan","Emerson","Gloucester","Gloucester","Companion Caregiver","gloucester","","","","","","","Mozilla/5.0 (Windows NT 10.0; Win64; x64) AppleWebKit/537.36 (KHTML, like Gecko) Chrome/79.0.3945.79 Safari/537.36","https://connectedhomecare.com/home-care-careers/companion-caregiver-job-gloucester-part-time-q202059","Olivia Fonti"
"3803","Dec 29, 2019","Oliver","Emerson","Gloucester","Gloucester","Companion Caregiver","gloucester","","","","","","","Mozilla/5.0 (Windows NT 10.0; Win64; x64) AppleWebKit/537.36 (KHTML, like Gecko) Chrome/79.0.3945.79 Safari/537.36","https://connectedhomecare.com/home-care-careers/companion-caregiver-job-gloucester-part-time-q202059","Olivia Fonti"
"3581","Dec 05, 2019","Doreen","Griffin","Waltham","Waltham","","","apply-online-applicant","","","","","","Mozilla/5.0 (Linux; Android 9; SAMSUNG SM-A205F) AppleWebKit/537.36 (KHTML, like Gecko) SamsungBrowser/10.1 Chrome/71.0.3578.99 Mobile Safari/537.36","https://connectedhomecare.com/caregiver-jobs-in-massachusetts/","Yes"
"3596","Dec 09, 2019","Gabriel","Divers","Worcester","Waltham","Homemaker","weston","","","","","","","Mozilla/5.0 (Windows NT 6.3; Win64; x64) AppleWebKit/537.36 (KHTML, like Gecko) Chrome/78.0.3904.108 Safari/537.36","https://connectedhomecare.com/home-care-careers/homemaker-job-weston-full-time-q201150/","yes"
"3774","Dec 25, 2019","Felicia","McInerney","Gloucester","Gloucester","Companion Homemaker","gloucester","google_jobs_apply","organic","","","google_jobs_apply","","Mozilla/5.0 (iPhone; CPU iPhone OS 13_3 like Mac OS X) AppleWebKit/605.1.15 (KHTML, like Gecko) Version/13.0.4 Mobile/15E148 Safari/604.1","https://connectedhomecare.com/",""
"3582","Dec 05, 2019","SHARON","MORGAN","SOMERVILLE","Waltham","Companion Homemaker","brookline","","","","","","","Mozilla/5.0 (Windows NT 6.1; Trident/7.0; rv:11.0) like Gecko","https://connectedhomecare.com/home-care-careers/companion-job-brookline-31200/","YES"
"3721","Dec 19, 2019","Magalie","Nazaire","Waltham","Waltham","","","","","","","","","Mozilla/5.0 (iPhone; CPU iPhone OS 13_3 like Mac OS X) AppleWebKit/605.1.15 (KHTML, like Gecko) GSA/88.1.284108841 Mobile/15E148 Safari/604.1","https://www.google.com/",""
"3425","Nov 08, 2019","Myrlande","Bellevue","Brockton","Waltham","Home Health Aide","watertown","google","adwords","hha-locations","","ext","","Mozilla/5.0 (iPhone; CPU iPhone OS 12_3_1 like Mac OS X) AppleWebKit/605.1.15 (KHTML, like Gecko) Version/12.1.1 Mobile/15E148 Safari/604.1","https://connectedhomecare.com/home-care-careers/home-health-aide-hha-chha-job-watertown-part-time-q2",""
"3558","Nov 25, 2019","Mislene","Damasceno","Watertown","Waltham","","","","","","","","","Mozilla/5.0 (iPhone; CPU iPhone OS 13_2_3 like Mac OS X) AppleWebKit/605.1.15 (KHTML, like Gecko) Version/13.0.3 Mobile/15E148 Safari/604.1","https://connectedhomecare.com/chat-applicant/",""
"2824","Sep 04, 2019","Melouka","Belal","Waltham","Waltham","Personal Care Aide","waltham","","","","","","","Mozilla/5.0 (iPhone; CPU iPhone OS 12_3_1 like Mac OS X) AppleWebKit/605.1.15 (KHTML, like Gecko) Version/12.1.1 Mobile/15E148 Safari/604.1","https://connectedhomecare.com/home-care-careers/personal-care-caregiver-job-waltham-full-time-q19738",""
"3419","Nov 08, 2019","Robin","Lundrigan","Ipswich","Gloucester","Private Duty Nurse","rowley","google_jobs_apply","organic","","","google_jobs_apply","","Mozilla/5.0 (Windows NT 10.0; Win64; x64; rv:68.0) Gecko/20100101 Firefox/68.0","https://connectedhomecare.com/home-care-careers/home-care-nurse-job-rowley-part-time-q200213/?utm_ca",""
"3495","Nov 14, 2019","Jennifer","Arias","Roxbury","Waltham","Homemaker","brookline","","","","","","","Mozilla/5.0 (Windows NT 6.1; Trident/7.0; rv:11.0) like Gecko","https://connectedhomecare.com/home-care-careers/homemaker-home-care-job-brookline-part-time-q200692/",""
"3445","Nov 10, 2019","Irma Y","Velasquez Valdez","Waltham","Waltham","Homemaker","waltham","google_jobs_apply","organic","","","google_jobs_apply","","Mozilla/5.0 (iPhone; CPU iPhone OS 13_1_3 like Mac OS X) AppleWebKit/605.1.15 (KHTML, like Gecko) Version/13.0.1 Mobile/15E148 Safari/604.1","https://connectedhomecare.com/",""
"3457","Nov 12, 2019","aisha","nabbosa","waltham","Waltham","Homemaker","waltham","","","","","","","Mozilla/5.0 (Windows NT 10.0; Win64; x64) AppleWebKit/537.36 (KHTML, like Gecko) Chrome/78.0.3904.97 Safari/537.36","https://connectedhomecare.com/home-care-careers/homemaker-job-waltham-full-time-q200808/","yes"
"3430","Nov 09, 2019","ashley","lallo","watertown","Waltham","Companion Caregiver","watertown","google_jobs_apply","organic","","","google_jobs_apply","","Mozilla/5.0 (Windows NT 6.1; Win64; x64) AppleWebKit/537.36 (KHTML, like Gecko) Chrome/78.0.3904.97 Safari/537.36","https://connectedhomecare.com/home-care-careers/companion-home-care-aide-job-watertown-part-time-q20",""
"3281","Oct 21, 2019","cossia jocelyne","assare","pittsfield but i am planning to move by november","Waltham","Home Health Aide","brookline","google_jobs_apply","organic","","","google_jobs_apply","","Mozilla/5.0 (Windows NT 6.1; WOW64) AppleWebKit/537.36 (KHTML, like Gecko) Chrome/77.0.3865.120 Safari/537.36","https://connectedhomecare.com/home-care-careers/certified-home-health-aide-job-brookline-full-time-q",""
"3389","Nov 05, 2019","Annie","Nabunjo","Brookline","Waltham","","","","","","","","","Mozilla/5.0 (Linux; Android 9; SM-G960U) AppleWebKit/537.36 (KHTML, like Gecko) Chrome/78.0.3904.62 Mobile Safari/537.36","https://www.google.com/","Godfrey kizito"
"3341","Oct 29, 2019","Berlineda","Cius","Everett","Waltham","Homemaker","newton","","","","","","","Mozilla/5.0 (Macintosh; Intel Mac OS X 10_13_6) AppleWebKit/537.36 (KHTML, like Gecko) Chrome/78.0.3904.70 Safari/537.36","https://connectedhomecare.com/home-care-careers/homemaker-flexible-hours-job-newton-full-time-q20080",""
"3325","Oct 25, 2019","Elizabeth","Diaz","Boston","Waltham","Homemaker","dedham","","","","","","","Mozilla/5.0 (iPhone; CPU iPhone OS 13_1_3 like Mac OS X) AppleWebKit/605.1.15 (KHTML, like Gecko) Version/13.0.1 Mobile/15E148 Safari/604.1","https://connectedhomecare.com/home-care-careers/homemaker-home-care-job-dedham-full-time-q200812/",""
"3312","Oct 24, 2019","Abbey","Jerome","Gloucester","Gloucester","","","","","","","","","Mozilla/5.0 (iPhone; CPU iPhone OS 13_1_2 like Mac OS X) AppleWebKit/605.1.15 (KHTML, like Gecko) Version/13.0.1 Mobile/15E148 Safari/604.1","https://www.google.com/","Heather ward"
"3330","Oct 28, 2019","Beatrice","Orphe","137 Arlingtong St","Waltham","Home Health Aide","brookline","","","","","","","Mozilla/5.0 (Windows NT 6.1; Win64; x64) AppleWebKit/537.36 (KHTML, like Gecko) Chrome/77.0.3865.120 Safari/537.36","https://connectedhomecare.com/home-care-careers/certified-home-health-aide-job-brookline-full-time-q",""
"3348","Oct 30, 2019","Fatima","Lopez","waltham","Waltham","Homemaker","watertown","","","","","","","Mozilla/5.0 (Windows NT 10.0; Win64; x64) AppleWebKit/537.36 (KHTML, like Gecko) Chrome/77.0.3865.120 Safari/537.36","https://connectedhomecare.com/home-care-careers/homemaker-home-care-aide-job-watertown-full-time-q20",""
"3301","Oct 23, 2019","Harima","Buliibwa","Waltham","Waltham","","","","","","","","","Mozilla/5.0 (Windows NT 10.0; Win64; x64) AppleWebKit/537.36 (KHTML, like Gecko) Chrome/78.0.3904.63 Safari/537.36","https://www.google.com/",""
"3266","Oct 17, 2019","Janet","Nayiga","Waltham","Waltham","","","","","","","","","Mozilla/5.0 (Linux; Android 7.0; 5049W) AppleWebKit/537.36 (KHTML, like Gecko) Chrome/77.0.3865.116 Mobile Safari/537.36","https://connectedhomecare.com/home-elder-care-resources-waltham-ma/","Julie natongo"
"727","Feb 08, 2019","Sumaia","Ssenyonga","waltham","Waltham","","","","","","","","","Mozilla/5.0 (Windows NT 10.0; Win64; x64) AppleWebKit/537.36 (KHTML, like Gecko) Chrome/71.0.3578.98 Safari/537.36","https://www.google.com/","musa musinguzi"
"3220","Oct 10, 2019","Lydia","Nakanwagi","Waltham","Waltham","Companion Caregiver","needham","google_jobs_apply","organic","","","google_jobs_apply","","Mozilla/5.0 (Linux; Android 9; SM-G955U) AppleWebKit/537.36 (KHTML, like Gecko) Chrome/77.0.3865.92 Mobile Safari/537.36","https://connectedhomecare.com/home-care-careers/companion-home-care-job-needham-part-time-q200128/?u",""
"3201","Oct 08, 2019","julius","tumuhimbise","Waltham","Waltham","Home Health Aide","waltham","","","","","","","Mozilla/5.0 (Windows NT 10.0; Win64; x64) AppleWebKit/537.36 (KHTML, like Gecko) Chrome/77.0.3865.90 Safari/537.36","https://connectedhomecare.com/home-care-careers/home-health-aide-job-waltham-full-time-q199872/","Yes"
"3182","Oct 04, 2019","Neriah","Berakhah","Dorchester","Waltham","Home Health Aide","waltham","","","","","","","Mozilla/5.0 (Windows NT 10.0; Win64; x64) AppleWebKit/537.36 (KHTML, like Gecko) Chrome/77.0.3865.90 Safari/537.36","https://connectedhomecare.com/home-care-careers/home-health-aide-job-waltham-full-time-q199872/",""
"3199","Oct 08, 2019","Aimable","NIYONSHUTI","Waltham","Waltham","Companion Caregiver","waltham","","","","","","","Mozilla/5.0 (Linux; Android 8.1.0; LM-X212(G) Build/OPM1.171019.026) AppleWebKit/537.36 (KHTML, like Gecko) Chrome/68.0.3440.91 Mobile Safari/537.36","https://connectedhomecare.com/home-care-careers/companion-flexible-hours-job-waltham-full-time-q1999",""
"3190","Oct 06, 2019","Fartun","Farah","Cambrindge","Waltham","","","","","","","","","Mozilla/5.0 (iPhone; CPU iPhone OS 12_4_1 like Mac OS X) AppleWebKit/605.1.15 (KHTML, like Gecko) Version/12.1.2 Mobile/15E148 Safari/604.1","https://connectedhomecare.com/caregiver-jobs-in-massachusetts/",""
"3155","Sep 29, 2019","ashley","nunes","Gloucester","Gloucester","","","","","","","","","Mozilla/5.0 (Macintosh; Intel Mac OS X 10_13_6) AppleWebKit/605.1.15 (KHTML, like Gecko) Version/11.1.2 Safari/605.1.15","https://connectedhomecare.com/caregiver-jobs-in-massachusetts/","yes Carrie Huntley"
"1252","Apr 04, 2019","Elisnor","Roseline","WALTHAM","Waltham","","","","","","","","","Mozilla/5.0 (Linux; Android 8.1.0; SM-J727T1 Build/M1AJQ) AppleWebKit/537.36 (KHTML, like Gecko) Chrome/69.0.3497.100 Mobile Safari/537.36","android-app://com.google.android.googlequicksearchbox",""
"3169","Sep 30, 2019","Kimanh","dao","Dorchester Center","Waltham","Home Health Aide","waltham","","","","","","","Mozilla/5.0 (Linux; Android 9; SM-N975U) AppleWebKit/537.36 (KHTML, like Gecko) Chrome/77.0.3865.92 Mobile Safari/537.36","https://connectedhomecare.com/home-care-careers/home-health-aide-job-waltham-full-time-q199872/",""
"3119","Sep 25, 2019","Judy","Vrock","Newton","Waltham","","","google","adwords","companion","","burlington-companion-jobapp","","Mozilla/5.0 (Windows NT 10.0; WOW64) AppleWebKit/537.36 (KHTML, like Gecko) Chrome/77.0.3865.90 Safari/537.36","https://www.google.com/",""
"3092","Sep 24, 2019","Sandra","Gaudet","Waltham","Waltham","Companion Homemaker","waltham","google_jobs_apply","organic","","","google_jobs_apply","","Mozilla/5.0 (Linux; Android 5.1.1; SAMSUNG SM-G360T1 Build/LMY47X) AppleWebKit/537.36 (KHTML, like Gecko) SamsungBrowser/3.3 Chrome/38.0.2125.102 Mobile Safari/537.36","https://connectedhomecare.com/home-care-careers/homemaker-companion-caregiver-job-waltham-part-time-",""
"3066","Sep 21, 2019","Karyn","CROWLEY","ROCKPORT","Gloucester","Companion Homemaker","rockport","google_jobs_apply","organic","","","google_jobs_apply","","Mozilla/5.0 (Windows NT 10.0; Win64; x64) AppleWebKit/537.36 (KHTML, like Gecko) Chrome/76.0.3809.132 Safari/537.36","https://connectedhomecare.com/home-care-careers/home-care-aide-homemaker-companion-job-rockport-full",""
"3031","Sep 18, 2019","Bethelmy","Desvarieux","Cambridge","Waltham","","","","","","","","","Mozilla/5.0 (Linux; Android 9; moto g(7)) AppleWebKit/537.36 (KHTML, like Gecko) Chrome/77.0.3865.73 Mobile Safari/537.36","https://connectedhomecare.com/ziprecruiter/",""
"3037","Sep 18, 2019","Alice","Kiwanuka-kavuma","Newton","Waltham","Companion Caregiver","waltham","","","","","","","Mozilla/5.0 (Windows NT 10.0; Win64; x64) AppleWebKit/537.36 (KHTML, like Gecko) Chrome/64.0.3282.140 Safari/537.36 Edge/18.17763","https://connectedhomecare.com/home-care-careers/companion-flexible-hours-job-waltham-full-time-q1999","yes Stella Ajike"
"2972","Sep 13, 2019","Soukaina","Cherif","Waltham","Waltham","","","","","","","","","Mozilla/5.0 (iPhone; CPU iPhone OS 12_3 like Mac OS X) AppleWebKit/605.1.15 (KHTML, like Gecko) CriOS/76.0.3809.123 Mobile/15E148 Safari/605.1","https://connectedhomecare.com/ziprecruiter/",""
"2804","Sep 03, 2019","Alyssa","Carter","Gloucester","Gloucester","","","","","","","","","Mozilla/5.0 (iPhone; CPU iPhone OS 11_2_2 like Mac OS X) AppleWebKit/604.4.7 (KHTML, like Gecko) Version/11.0 Mobile/15C202 Safari/604.1","",""
"2746","Aug 28, 2019","Elizabeth","Weagle","south hamilton","Gloucester","Homemaker","gloucester","google_jobs_apply","organic","","","google_jobs_apply","","Mozilla/5.0 (Windows NT 10.0; Win64; x64) AppleWebKit/537.36 (KHTML, like Gecko) Chrome/76.0.3809.132 Safari/537.36","https://connectedhomecare.com/home-care-careers/homemaker-caregiver-job-gloucester-full-time-q198699",""
"2923","Sep 10, 2019","Kyree","Jones","Newton","Waltham","Companion Homemaker","newton","google_jobs_apply","organic","","","google_jobs_apply","","Mozilla/5.0 (iPhone; CPU iPhone OS 11_4_1 like Mac OS X) AppleWebKit/605.1.15 (KHTML, like Gecko) Version/11.0 Mobile/15E148 Safari/604.1","https://connectedhomecare.com/",""
"2808","Sep 03, 2019","Laura","Zito","Gloucester","Gloucester","","","","","","","","","Mozilla/5.0 (Linux; Android 9; moto g(7) power) AppleWebKit/537.36 (KHTML, like Gecko) Chrome/76.0.3809.132 Mobile Safari/537.36","https://connectedhomecare.com/ziprecruiter/",""
"2910","Sep 09, 2019","Beatriz","Valdez","Hyde Park","Waltham","Personal Care Aide","waltham","","","","","","","Mozilla/5.0 (iPhone; CPU iPhone OS 12_4 like Mac OS X) AppleWebKit/605.1.15 (KHTML, like Gecko) GSA/69.1.238102067 Mobile/15E148 Safari/605.1","https://connectedhomecare.com/home-care-careers/personal-care-caregiver-job-waltham-full-time-q19738",""
"2871","Sep 06, 2019","Brianna","Komi","Gloucester","Gloucester","","","","","","","","","Mozilla/5.0 (Windows NT 10.0; Win64; x64) AppleWebKit/537.36 (KHTML, like Gecko) Chrome/64.0.3282.140 Safari/537.36 Edge/17.17134","https://connectedhomecare.com/office-application/","Yes, Jennifer Torres"
"2848","Sep 05, 2019","Linda","McCarthy","Waltham","Waltham","","","","","","","","","Mozilla/5.0 (iPhone; CPU iPhone OS 12_4 like Mac OS X) AppleWebKit/605.1.15 (KHTML, like Gecko) GSA/79.0.259819395 Mobile/16G77 Safari/604.1","",""
"2817","Sep 03, 2019","Swad","Nasejje","Woburn","Waltham","Home Health Aide","bedford","google_jobs_apply","organic","","","google_jobs_apply","","Mozilla/5.0 (Linux; Android 9; SM-G950U) AppleWebKit/537.36 (KHTML, like Gecko) Chrome/76.0.3809.132 Mobile Safari/537.36","https://connectedhomecare.com/home-care-careers/certified-home-health-aide-job-bedford-part-time-q19",""
"2693","Aug 23, 2019","Crystal","Brown","Gloucester","Gloucester","Companion","gloucester","","","","","","","Mozilla/5.0 (iPhone; CPU iPhone OS 12_3_1 like Mac OS X) AppleWebKit/605.1.15 (KHTML, like Gecko) Version/12.1.1 Mobile/15E148 Safari/604.1","https://connectedhomecare.com/home-care-careers/companion-job-gloucester-p31118/",""
"2699","Aug 24, 2019","Shyla","Frontiero","Gloucester","Gloucester","Companion","gloucester","","","","","","","Mozilla/5.0 (iPhone; CPU iPhone OS 12_4 like Mac OS X) AppleWebKit/605.1.15 (KHTML, like Gecko) Version/12.1.2 Mobile/15E148 Safari/604.1","https://connectedhomecare.com/home-care-careers/companion-job-gloucester-p31118/","Diane Jackson"
"2711","Aug 26, 2019","marly","saint georges","Cant","Waltham","","","","","","","","","Mozilla/5.0 (Windows NT 10.0; WOW64; rv:60.0) Gecko/20100101 Firefox/60.0","https://www.google.com/",""
"2383","Jul 29, 2019","Guerline","Kermeus","Mattapan","Waltham","","","google","adwords","hha","","peabody-hha-jobapp","","Mozilla/5.0 (Linux; Android 7.1.1; Z965 Build/NMF26V) AppleWebKit/537.36 (KHTML, like Gecko) Chrome/58.0.3029.83 Mobile Safari/537.36","",""
"2739","Aug 28, 2019","Stella","Ajike","Auburndale","Waltham","Homemaker","newton","","","","","","","Mozilla/5.0 (iPhone; CPU iPhone OS 12_4 like Mac OS X) AppleWebKit/605.1.15 (KHTML, like Gecko) GSA/80.0.262003652 Mobile/16G77 Safari/604.1","https://connectedhomecare.com/home-care-careers/homemaker-caregiver-job-newton-full-time-q198741/",""
"2718","Aug 27, 2019","Lorna","Nambooze","Auburndale","Waltham","Homemaker","newton","","","","","","","Mozilla/5.0 (Windows NT 10.0; Win64; x64) AppleWebKit/537.36 (KHTML, like Gecko) Chrome/76.0.3809.100 Safari/537.36","https://connectedhomecare.com/home-care-careers/homemaker-caregiver-job-newton-full-time-q198741/","Resty Nakagwe"
"662","Feb 01, 2019","Yvonny","Pimentel","Waltham","Waltham","Companion Homemaker","belmont","","","","","","","Mozilla/5.0 (Linux; Android 8.1.0; SAMSUNG SM-J727T1 Build/M1AJQ) AppleWebKit/537.36 (KHTML, like Gecko) SamsungBrowser/8.2 Chrome/63.0.3239.111 Mobile Safari/537.36","https://connectedhomecare.com/home-care-careers/companion-job-belmont-31199/","No"
"2555","Aug 12, 2019","Ahjane","Wesley","Brockton","Waltham","Homemaker","westwood","google_jobs_apply","organic","","","google_jobs_apply","","Mozilla/5.0 (Macintosh; Intel Mac OS X 10_9_5) AppleWebKit/537.36 (KHTML, like Gecko) Chrome/65.0.3325.181 Safari/537.36","https://connectedhomecare.com/home-care-careers/homemaker-home-care-caregiver-job-westwood-part-time",""
"2663","Aug 21, 2019","Mathilde","Komoin","Boston","Waltham","","","google","adwords","hha","","peabody-hha-jobapp","","Mozilla/5.0 (Windows NT 10.0; Win64; x64) AppleWebKit/537.36 (KHTML, like Gecko) Chrome/76.0.3809.100 Safari/537.36","https://www.google.com/",""
"2678","Aug 22, 2019","Carolyn","Ciccatelli","Newton","Waltham","Companion Caregiver","newton","google_jobs_apply","organic","","","google_jobs_apply","","Mozilla/5.0 (Macintosh; Intel Mac OS X 10_12_5) AppleWebKit/537.36 (KHTML, like Gecko) Chrome/76.0.3809.100 Safari/537.36","https://connectedhomecare.com/home-care-careers/companion-flexible-hours-job-newton-full-time-q19851",""
"2695","Aug 23, 2019","Violar","Namawejje","Waltham","Waltham","","","","","","","","","Mozilla/5.0 (iPhone; CPU iPhone OS 12_4 like Mac OS X) AppleWebKit/605.1.15 (KHTML, like Gecko) GSA/80.0.262003652 Mobile/16G77 Safari/604.1","https://connectedhomecare.com/caregiver-jobs-in-massachusetts/","Yes"
"2676","Aug 22, 2019","Jailene","Rodriguez","Tyngsboro","Waltham","Companion Caregiver","waltham","","","","","","","Mozilla/5.0 (iPhone; CPU iPhone OS 12_4 like Mac OS X) AppleWebKit/605.1.15 (KHTML, like Gecko) Version/12.1.2 Mobile/15E148 Safari/604.1","https://connectedhomecare.com/home-care-careers/companion-job-waltham-full-time-q198516/",""
"2469","Aug 06, 2019","Richelle","Destasio","Gloucester","Gloucester","","","","","","","","","Mozilla/5.0 (iPhone; CPU iPhone OS 12_3_1 like Mac OS X) AppleWebKit/605.1.15 (KHTML, like Gecko) Version/12.1.1 Mobile/15E148 Safari/604.1","https://connectedhomecare.com/home-elder-care-resources-gloucester-ma/",""
"2655","Aug 20, 2019","Nieves Martinez","Lillian","Dorchester","Waltham","Home Health Aide","waltham","","","","","","","Mozilla/5.0 (Windows NT 10.0; Win64; x64) AppleWebKit/537.36 (KHTML, like Gecko) Chrome/76.0.3809.100 Safari/537.36","https://connectedhomecare.com/home-care-careers/home-health-aide-job-waltham-part-time-q197838/","wendi vargas"
"2566","Aug 13, 2019","Andrew","Hall","Watertown","Waltham","Homemaker","watertown","","","","","","","Mozilla/5.0 (Macintosh; Intel Mac OS X 10_14_5) AppleWebKit/605.1.15 (KHTML, like Gecko) Version/12.1.1 Safari/605.1.15","https://connectedhomecare.com/home-care-careers/homemaker-home-care-caregiver-job-watertown-part-tim",""
"2576","Aug 13, 2019","Claire","Vilsaint","Medford","Waltham","Home Health Aide","watertown","","","","","","","Mozilla/5.0 (Windows NT 10.0; Win64; x64) AppleWebKit/537.36 (KHTML, like Gecko) Chrome/76.0.3809.100 Safari/537.36","https://connectedhomecare.com/home-care-careers/home-health-aide-job-watertown-full-time-q196596/",""
"2594","Aug 14, 2019","stephen","kayemba","haverhill","Waltham","","","google","adwords","hha-locations","","ext","","Mozilla/5.0 (iPhone; CPU iPhone OS 12_3_1 like Mac OS X) AppleWebKit/605.1.15 (KHTML, like Gecko) GSA/80.0.262003652 Mobile/16F203 Safari/604.1","","Ssejjengo Robert"
"2602","Aug 15, 2019","Mary Scott","Miller","Andover","Waltham","Companion","waltham","","","","","","","Mozilla/5.0 (Macintosh; Intel Mac OS X 10_14_6) AppleWebKit/537.36 (KHTML, like Gecko) Chrome/76.0.3809.100 Safari/537.36","https://connectedhomecare.com/home-care-careers/companion-job-waltham-p31136/",""
"2579","Aug 13, 2019","Arman","Entezar","Waltham","Waltham","Homemaker","waltham","google_jobs_apply","organic","","","google_jobs_apply","","Mozilla/5.0 (iPhone; CPU iPhone OS 12_4 like Mac OS X) AppleWebKit/605.1.15 (KHTML, like Gecko) Version/12.1.2 Mobile/15E148 Safari/604.1","https://connectedhomecare.com/",""
"2307","Jul 22, 2019","thomas","okrah","Quincy","Waltham","Homemaker","belmont","","","","","","","Mozilla/5.0 (Windows NT 6.1; WOW64; Trident/7.0; rv:11.0) like Gecko","https://connectedhomecare.com/home-care-careers/homemaker-job-belmont-part-time-q196704/",""
"2578","Aug 13, 2019","Christine","Nabunje","Waltham","Waltham","Homemaker","newton","","","","","","","Mozilla/5.0 (iPhone; CPU iPhone OS 12_3_1 like Mac OS X) AppleWebKit/605.1.15 (KHTML, like Gecko) Version/12.1.1 Mobile/15E148 Safari/604.1","https://connectedhomecare.com/home-care-careers/homemaker-job-newton-part-time-q197724/",""
"2532","Aug 09, 2019","Wilson","Valmont","Dorchester","Waltham","Personal Care Aide","waltham","","","","","","","Mozilla/5.0 (X11; CrOS x86_64 12105.100.0) AppleWebKit/537.36 (KHTML, like Gecko) Chrome/75.0.3770.144 Safari/537.36","https://connectedhomecare.com/home-care-careers/personal-care-aide-job-waltham-part-time-q197160/",""
"2535","Aug 10, 2019","Sonya","Leak","DORCHESTER CENTER","Waltham","Companion Caregiver","waltham","","","","","","","Mozilla/5.0 (Linux; Android 9; SAMSUNG SM-G950U Build/PPR1.180610.011) AppleWebKit/537.36 (KHTML, like Gecko) SamsungBrowser/9.4 Chrome/67.0.3396.87 Mobile Safari/537.36","https://connectedhomecare.com/home-care-careers/companion-home-care-caregiver-job-waltham-part-time-",""
"2553","Aug 12, 2019","Alice","Nabutete","Norwood","Waltham","Supportive Care Aide","norwood","google_jobs_apply","organic","","","google_jobs_apply","","Mozilla/5.0 (iPhone; CPU iPhone OS 12_3_1 like Mac OS X) AppleWebKit/605.1.15 (KHTML, like Gecko) Version/12.1.1 Mobile/15E148 Safari/604.1","https://connectedhomecare.com/home-care-careers/supportive-home-care-aide-job-norwood-full-time-q197",""
"2505","Aug 08, 2019","Judith","Bakabulindi","Waltham","Waltham","Supportive Care Aide","weston","","","","","","","Mozilla/5.0 (iPad; CPU OS 10_3_3 like Mac OS X) AppleWebKit/603.1.30 (KHTML, like Gecko) GSA/68.0.234683655 Mobile/14G60 Safari/602.1","https://connectedhomecare.com/home-care-careers/supportive-home-care-aide-job-weston-part-time-q1972",""
"2410","Jul 31, 2019","Claudine","Janvier","126 Florence rd","Waltham","","","","","","","","","Mozilla/5.0 (Linux; Android 7.0; 5049Z Build/NRD90M) AppleWebKit/537.36 (KHTML, like Gecko) Chrome/56.0.2924.87 Mobile Safari/537.36","https://www.google.com/",""
"2429","Aug 01, 2019","Robert","Ssejjengo","Waltham","Waltham","","","google","adwords","hha-locations","","ext","","Mozilla/5.0 (iPhone; CPU iPhone OS 12_3_1 like Mac OS X) AppleWebKit/605.1.15 (KHTML, like Gecko) GSA/79.0.259819395 Mobile/16F203 Safari/604.1","",""
"1342","Apr 13, 2019","Adalgiza","De los santos rodriguez","Dorchester","Waltham","","","google","adwords","hha","Home-health-Aide-Framingham","framingham-job-listing","","Mozilla/5.0 (iPhone; CPU iPhone OS 12_1 like Mac OS X) AppleWebKit/605.1.15 (KHTML, like Gecko) CriOS/72.0.3626.101 Mobile/15E148 Safari/605.1","https://connectedhomecare.com/hha-job-posting-framingham-170919/?utm_source=google&utm_medium=adword",""
"2411","Jul 31, 2019","Elizabeth","Barros","Franklin","Waltham","","","","","","","","","Mozilla/5.0 (iPhone; CPU iPhone OS 12_3_1 like Mac OS X) AppleWebKit/605.1.15 (KHTML, like Gecko) Version/12.1.1 Mobile/15E148 Safari/604.1","http://connectedhomecare.com/indeed/",""
"2343","Jul 25, 2019","Diana","Bwette","Boston","Waltham","Homemaker","watertown","","","","","","","Mozilla/5.0 (Windows NT 10.0; Win64; x64) AppleWebKit/537.36 (KHTML, like Gecko) Chrome/75.0.3770.142 Safari/537.36","https://connectedhomecare.com/home-care-careers/homemaker-flexible-hours-job-watertown-part-time-q19",""
"2320","Jul 23, 2019","Jennifer","Nassamba","Woburn","Waltham","","","","","","","","","Mozilla/5.0 (Linux; Android 9; SM-G950U1) AppleWebKit/537.36 (KHTML, like Gecko) Chrome/75.0.3770.143 Mobile Safari/537.36","android-app://com.google.android.gm",""
"2333","Jul 24, 2019","Joyce","Muriuki","Randolph","Waltham","","","google","adwords","hha","","concord-hha-caregiver","","Mozilla/5.0 (Linux; Android 7.1.1; SM-J700T1 Build/NMF26X) AppleWebKit/537.36 (KHTML, like Gecko) Chrome/60.0.3112.116 Mobile Safari/537.36","https://www.google.com/",""
"2378","Jul 29, 2019","Woman","Rwakafuuzi","Waltham","Waltham","","","","","","","","","Mozilla/5.0 (Linux; Android 8.0.0; SAMSUNG SM-G950U Build/R16NW) AppleWebKit/537.36 (KHTML, like Gecko) SamsungBrowser/9.4 Chrome/67.0.3396.87 Mobile Safari/537.36","",""
"2172","Jul 10, 2019","Mary","Barry","Rowley","Gloucester","Companion Homemaker","ipswich","google_jobs_apply","organic","","","google_jobs_apply","","Mozilla/5.0 (iPhone; CPU iPhone OS 12_3_1 like Mac OS X) AppleWebKit/605.1.15 (KHTML, like Gecko) Version/12.1.1 Mobile/15E148 Safari/604.1","https://connectedhomecare.com/home-care-careers/home-care-aide-homemaker-companion-job-ipswich-part-",""
"2133","Jul 08, 2019","Julie","Gates","Danvers","Gloucester","","","","","","","","","Mozilla/5.0 (iPhone; CPU iPhone OS 12_3 like Mac OS X) AppleWebKit/605.1.15 (KHTML, like Gecko) CriOS/75.0.3770.103 Mobile/15E148 Safari/605.1","","Linda Perkins"
"2136","Jul 08, 2019","Edward","Stewart","Rockport","Gloucester","Personal Care Aide","essex","google_jobs_apply","organic","","","google_jobs_apply","","Mozilla/5.0 (iPhone; CPU iPhone OS 12_3_2 like Mac OS X) AppleWebKit/605.1.15 (KHTML, like Gecko) Version/12.1.1 Mobile/15E148 Safari/604.1","https://connectedhomecare.com/",""
"2242","Jul 16, 2019","Melisa","Ramirez","Hyde park","Waltham","","","","","","","","","Mozilla/5.0 (iPhone; CPU iPhone OS 12_3_1 like Mac OS X) AppleWebKit/605.1.15 (KHTML, like Gecko) Version/12.1.1 Mobile/15E148 Safari/604.1","",""
"2264","Jul 18, 2019","Melisss","Rentas","Ashland","Waltham","Homemaker","watertown","","","","","","","Mozilla/5.0 (Linux; Android 8.1.0; LM-X410PM) AppleWebKit/537.36 (KHTML, like Gecko) Chrome/75.0.3770.143 Mobile Safari/537.36","https://connectedhomecare.com/home-care-careers/homemaker-flexible-hours-job-watertown-part-time-q19",""
"2280","Jul 19, 2019","Brittany","Hachey","Waltham","Waltham","Companion Caregiver","maynard","google_jobs_apply","organic","","","google_jobs_apply","","Mozilla/5.0 (Linux; Android 8.0.0; SM-G930F) AppleWebKit/537.36 (KHTML, like Gecko) Chrome/75.0.3770.143 Mobile Safari/537.36","https://connectedhomecare.com/home-care-careers/companion-home-care-job-maynard-full-time-q196402/?u",""
"2244","Jul 16, 2019","Juliet","Nalwoga","Waltham","Waltham","","","google","adwords","hha","Home-health-Aide-Framingham","framingham-job-listing","","Mozilla/5.0 (Linux; Android 7.1.1; HTC U11 life Build/NMF26X) AppleWebKit/537.36 (KHTML, like Gecko) Chrome/58.0.3029.83 Mobile Safari/537.36","https://connectedhomecare.com/hha-job-posting-framingham-170919/?utm_source=google&utm_medium=adword",""
"2223","Jul 15, 2019","Rose Lourdes","Pierre Adrien","Waltham","Waltham","Home Health Aide","waltham","","","","","","","Mozilla/5.0 (Linux; Android 9; SM-G975U) AppleWebKit/537.36 (KHTML, like Gecko) Chrome/75.0.3770.101 Mobile Safari/537.36","https://connectedhomecare.com/home-care-careers/certified-home-health-aide-job-waltham-full-time-q19","Martine robert"
"1920","Jun 20, 2019","fardosa","abdi","boston","Waltham","Companion Homemaker","brookline","","","","","","","Mozilla/5.0 (Macintosh; Intel Mac OS X 10_11_6) AppleWebKit/605.1.15 (KHTML, like Gecko) Version/11.1.2 Safari/605.1.15","https://connectedhomecare.com/home-care-careers/homemaker-companion-job-brookline-part-time-q195462/",""
"2163","Jul 10, 2019","Meetdgy","Louis","Boston","Waltham","","","","","","","","","Mozilla/5.0 (Linux; Android 8.1.0; LM-X212(G)) AppleWebKit/537.36 (KHTML, like Gecko) Chrome/71.0.3578.99 Mobile Safari/537.36","android-app://com.google.android.gm",""
"1932","Jun 21, 2019","Dawn","Emery","Gloucester","Gloucester","Homemaker","gloucester","","","","","","","Mozilla/5.0 (iPhone; CPU iPhone OS 12_3_2 like Mac OS X) AppleWebKit/605.1.15 (KHTML, like Gecko) Mobile/15E148 [FBAN/MessengerForiOS;FBDV/iPhone10,5;FBMD/iPhone;FBSN/iOS;FBSV/12.3.2;FBSS/3;FBCR/;FBID/phone;FBLC/en_US;FBOP/5]","https://connectedhomecare.com/home-care-careers/homemaker-job-gloucester-p31119/",""
"1991","Jun 26, 2019","Vicenta","Colindres","Waltham","Waltham","","","","","","","","","Mozilla/5.0 (iPhone; CPU iPhone OS 12_3_1 like Mac OS X) AppleWebKit/605.1.15 (KHTML, like Gecko) Version/12.1.1 Mobile/15E148 Safari/604.1","https://www.google.com/",""
"2068","Jul 02, 2019","Resty","Nakagwe","Waltham","Waltham","","","google","adwords","hha","","malden-hha-jobapp","","Mozilla/5.0 (Linux; Android 7.0; QTASUN1) AppleWebKit/537.36 (KHTML, like Gecko) Chrome/74.0.3729.157 Safari/537.36","https://www.google.com/","Yes"
"1807","Jun 07, 2019","LiLLIAN","LUKYAMUZI","Newton","Waltham","","","","","","","","","Mozilla/5.0 (Linux; Android 7.0; LGMP450) AppleWebKit/537.36 (KHTML, like Gecko) Chrome/74.0.3729.157 Mobile Safari/537.36","https://www.google.com/","She has ever worked there"
"1954","Jun 24, 2019","Mara","Zellman","Gloucester","Gloucester","Homemaker","gloucester","","","","","","","Mozilla/5.0 (iPad; CPU OS 11_0_3 like Mac OS X) AppleWebKit/604.1.38 (KHTML, like Gecko) Version/11.0 Mobile/15A432 Safari/604.1","https://connectedhomecare.com/home-care-careers/homemaker-job-gloucester-p31119/",""
"1921","Jun 20, 2019","Taylor","Francis","Gloucester","Gloucester","Companion Homemaker","gloucester","","","","","","","Mozilla/5.0 (Linux; Android 9; SAMSUNG SM-G975U Build/PPR1.180610.011) AppleWebKit/537.36 (KHTML, like Gecko) SamsungBrowser/9.2 Chrome/67.0.3396.87 Mobile Safari/537.36","https://connectedhomecare.com/home-care-careers/homemaker-companion-caregiver-job-gloucester-part-ti","Jenna Difrancesco"
"1937","Jun 21, 2019","Rosemita","Angervil","02474","Waltham","Companion Homemaker","arlington","google_jobs_apply","organic","hha","","google_jobs_apply","","Mozilla/5.0 (Linux; Android 6.0.1; SM-A500W) AppleWebKit/537.36 (KHTML, like Gecko) Chrome/75.0.3770.101 Mobile Safari/537.36","https://connectedhomecare.com/home-care-careers/home-care-aide-homemaker-companion-job-arlington-ful",""
"1960","Jun 24, 2019","Niadalee","Nieves","Waltham","Waltham","","","","","","","","","Mozilla/5.0 (Linux; Android 6.0.1; Z981) AppleWebKit/537.36 (KHTML, like Gecko) Chrome/74.0.3729.157 Mobile Safari/537.36","https://www.google.com/",""
"1925","Jun 20, 2019","Joanna","Numerosi","Gloucester","Gloucester","Companion","gloucester","","","","","","","Mozilla/5.0 (iPhone; CPU iPhone OS 12_3_1 like Mac OS X) AppleWebKit/605.1.15 (KHTML, like Gecko) Version/12.1.1 Mobile/15E148 Safari/604.1","https://connectedhomecare.com/home-care-careers/companion-job-gloucester-p31118/",""
"1868","Jun 13, 2019","Marie Natacha","Jean Mary Noel","Cambridge","Waltham","Home Health Aide","watertown","","","","","","","Mozilla/5.0 (iPhone; CPU iPhone OS 12_3_1 like Mac OS X) AppleWebKit/605.1.15 (KHTML, like Gecko) Version/12.1.1 Mobile/15E148 Safari/604.1","https://connectedhomecare.com/home-care-careers/hha-chha-flexible-hours-job-watertown-part-time-q195",""
"1771","Jun 04, 2019","Keisa","Rosa","Allston","Waltham","Home Health Aide","newton","","","","","","","Mozilla/5.0 (Linux; Android 8.0.0; SAMSUNG SM-G960U Build/R16NW) AppleWebKit/537.36 (KHTML, like Gecko) SamsungBrowser/9.2 Chrome/67.0.3396.87 Mobile Safari/537.36","https://connectedhomecare.com/home-care-careers/home-health-aide-job-newton-q193752/","Client"
"1660","May 22, 2019","Shannon","Smith","Gloucester","Gloucester","Companion","gloucester","","","","","","","Mozilla/5.0 (iPhone; CPU iPhone OS 12_2 like Mac OS X) AppleWebKit/605.1.15 (KHTML, like Gecko) Version/12.1 Mobile/15E148 Safari/604.1","https://connectedhomecare.com/home-care-careers/companion-job-gloucester-p31118/",""
"1821","Jun 10, 2019","Rose Gardite","Jean Baptiste","Lowell","Waltham","Home Health Aide","waltham","","","","","","","Mozilla/5.0 (iPhone; CPU iPhone OS 12_3_1 like Mac OS X) AppleWebKit/605.1.15 (KHTML, like Gecko) Version/12.1.1 Mobile/15E148 Safari/604.1","https://connectedhomecare.com/home-care-careers/hha-job-waltham-full-time-q195013/",""
"1797","Jun 06, 2019","Gabrielle","Simon Lubin","Cambridge","Waltham","","","","","","","","","Mozilla/5.0 (iPhone; CPU iPhone OS 12_3_1 like Mac OS X) AppleWebKit/605.1.15 (KHTML, like Gecko) Version/12.1.1 Mobile/15E148 Safari/604.1","https://app.connectedhomecare.com/jobinquiry","Marie Imbert"
"1812","Jun 07, 2019","Fredalex","mukiibi","Waltham","Waltham","Home Health Aide","waltham","","","","","","","Mozilla/5.0 (Windows NT 10.0; Win64; x64) AppleWebKit/537.36 (KHTML, like Gecko) Chrome/74.0.3729.169 Safari/537.36","https://connectedhomecare.com/home-care-careers/home-health-aide-job-waltham-q193753/","Yes"
"1805","Jun 06, 2019","Nathalie","Maximin Valmont","Mattapan","Waltham","Home Health Aide","dedham","google","adwords","hha-job-description","","ext","","Mozilla/5.0 (X11; CrOS x86_64 11895.118.0) AppleWebKit/537.36 (KHTML, like Gecko) Chrome/74.0.3729.159 Safari/537.36","https://connectedhomecare.com/home-care-careers/hha-job-dedham-part-time-q195130/",""
"1654","May 22, 2019","Johnna","Santos","Gloucester","Gloucester","Personal Care Aide","rockport","google","adwords","hha-employee-benefits","","ext","","Mozilla/5.0 (Linux; Android 7.0; LG-LS777) AppleWebKit/537.36 (KHTML, like Gecko) Chrome/74.0.3729.157 Mobile Safari/537.36","https://connectedhomecare.com/home-care-careers/personal-care-aide-job-rockport-q193961/",""
"1657","May 22, 2019","frederick","nsubuga","waltham","Waltham","","","google","adwords","hha","","waltham-hha-jobapp","","Mozilla/5.0 (Windows NT 6.1) AppleWebKit/537.36 (KHTML, like Gecko) Chrome/74.0.3729.169 Safari/537.36","https://www.google.com/",""
"1763","Jun 03, 2019","Evonne","Ngwe","Cambridge","Waltham","Home Health Aide","waltham","","","","","","","Mozilla/5.0 (Windows NT 10.0; Win64; x64) AppleWebKit/537.36 (KHTML, like Gecko) Chrome/74.0.3729.169 Safari/537.36","https://connectedhomecare.com/home-care-careers/home-health-aide-job-waltham-q193753/",""
"1688","May 27, 2019","Hannah","Flaherty","Gloucester","Gloucester","Homemaker","gloucester","","","","","","","Mozilla/5.0 (iPhone; CPU iPhone OS 12_2 like Mac OS X) AppleWebKit/605.1.15 (KHTML, like Gecko) GSA/73.1.246847905 Mobile/15E148 Safari/605.1","https://connectedhomecare.com/home-care-careers/homemaker-job-gloucester-p31119/",""
"1627","May 18, 2019","Dimitra","Lavrakas","Gloucester","Gloucester","Companion","gloucester","","","","","","","Mozilla/5.0 (Macintosh; Intel Mac OS X 10.14; rv:66.0) Gecko/20100101 Firefox/66.0","https://connectedhomecare.com/home-care-careers/companion-job-gloucester-p31118/",""
"1523","May 05, 2019","Susan","Peacock","Beverly","Gloucester","","","","","","","","","Mozilla/5.0 (iPhone; CPU iPhone OS 12_2 like Mac OS X) AppleWebKit/605.1.15 (KHTML, like Gecko) Version/12.1 Mobile/15E148 Safari/604.1","http://connectedhomecare.com/indeed/",""
"1532","May 06, 2019","Rachel","Wilson","Gloucester","Gloucester","Companion Caregiver","gloucester","","","","","","","Mozilla/5.0 (Windows NT 6.1; Win64; x64) AppleWebKit/537.36 (KHTML, like Gecko) Chrome/74.0.3729.131 Safari/537.36","https://connectedhomecare.com/home-care-careers/companion-home-care-job-gloucester-part-time-q194518","No"
"1585","May 13, 2019","Maria","Pinegar","Gloucester","Gloucester","Home Health Aide","gloucester","","","","","","","Mozilla/5.0 (iPhone; CPU iPhone OS 12_2 like Mac OS X) AppleWebKit/605.1.15 (KHTML, like Gecko) Version/12.1 Mobile/15E148 Safari/604.1","https://connectedhomecare.com/home-care-careers/home-health-aide-job-gloucester-q193657/","Tiffany young"
"1647","May 21, 2019","Tanika","Edouard","Billerica","Waltham","Home Health Aide","waltham","","","","","","","Mozilla/5.0 (iPhone; CPU iPhone OS 12_2 like Mac OS X) AppleWebKit/605.1.15 (KHTML, like Gecko) Version/12.1 Mobile/15E148 Safari/604.1","https://connectedhomecare.com/home-care-careers/home-health-aide-hha-cna-job-waltham-part-time-q1951",""
"1638","May 20, 2019","STEPHANIA","FRANCOIS","WALTHAM","Waltham","","","","","","","","","Mozilla/5.0 (Macintosh; Intel Mac OS X 10_14_2) AppleWebKit/537.36 (KHTML, like Gecko) Chrome/73.0.3683.103 Safari/537.36","https://connectedhomecare.com/home-elder-care-resources-waltham-ma/","yes"
"1551","May 08, 2019","Harriet","Nakamanyisa","Waltham","Waltham","Home Health Aide","waltham","","","","","","","Mozilla/5.0 (Windows NT 10.0; Win64; x64) AppleWebKit/537.36 (KHTML, like Gecko) Chrome/74.0.3729.131 Safari/537.36","https://connectedhomecare.com/home-care-careers/home-health-aide-hha-cna-job-waltham-full-time-q1943",""
"1388","Apr 19, 2019","Erliana","Julius","Waltham","Waltham","Home Health Aide","waltham","","","","","","","Mozilla/5.0 (X11; Linux i686) AppleWebKit/537.36 (KHTML, like Gecko) Ubuntu Chromium/53.0.2785.143 Chrome/53.0.2785.143 Safari/537.36","https://connectedhomecare.com/home-care-careers/home-health-aide-job-waltham-q194050/",""
"1512","May 03, 2019","Rossy","Madden","Waltham","Waltham","Home Health Aide","waltham","","","","","","","Mozilla/5.0 (Linux; Android 7.0; LGMP450) AppleWebKit/537.36 (KHTML, like Gecko) Chrome/73.0.3683.90 Mobile Safari/537.36","https://connectedhomecare.com/home-care-careers/home-health-aide-hha-cna-job-waltham-full-time-q1943","Yes"
"1550","May 08, 2019","Samuel","Kirabo","Waltham","Waltham","Home Health Aide","waltham","","","","","","","Mozilla/5.0 (iPhone; CPU iPhone OS 12_2 like Mac OS X) AppleWebKit/605.1.15 (KHTML, like Gecko) FxiOS/16.2b14898 Mobile/15E148 Safari/605.1.15","https://connectedhomecare.com/home-care-careers/home-health-aide-job-waltham-q193685/","No"
"1514","May 03, 2019","Rebeccah","Kityo","Belmont","Waltham","","","","","","","","","Mozilla/5.0 (Linux; Android 8.1.0; SM-J727U) AppleWebKit/537.36 (KHTML, like Gecko) Chrome/74.0.3729.112 Mobile Safari/537.36","https://www.google.com/","Jane Nakiganda"
"1361","Apr 16, 2019","Rosemary","Kato","Watertown","Waltham","Home Health Aide","watertown","","","","","","","Mozilla/5.0 (Windows NT 10.0; Win64; x64) AppleWebKit/537.36 (KHTML, like Gecko) Chrome/73.0.3683.103 Safari/537.36","https://connectedhomecare.com/home-care-careers/home-health-aide-job-watertown-q194051/",""
"1530","May 06, 2019","Kudra","Kisubi","Waltham","Waltham","Home Health Aide","wellesley","","","","","","","Mozilla/5.0 (Linux; Android 9; SM-N960U) AppleWebKit/537.36 (KHTML, like Gecko) Chrome/71.0.3578.99 Mobile Safari/537.36","https://connectedhomecare.com/home-care-careers/certified-home-health-aide-job-wellesley-part-time-q","Yes"
"1478","Apr 30, 2019","Jenae","Harrison","Peabody","Gloucester","Home Health Aide","beverly","","","","","","","Mozilla/5.0 (Macintosh; Intel Mac OS X 10_13_6) AppleWebKit/605.1.15 (KHTML, like Gecko) Version/11.1.2 Safari/605.1.15","https://connectedhomecare.com/home-care-careers/home-health-aide-job-beverly-q194020/","Yes, Lynsey Merry"
"1493","May 01, 2019","Brenda","De Valenzuela","Waltham","Waltham","Home Health Aide","newton","","","","","","","Mozilla/5.0 (iPhone; CPU iPhone OS 12_2 like Mac OS X) AppleWebKit/605.1.15 (KHTML, like Gecko) Version/12.1 Mobile/15E148 Safari/604.1","https://connectedhomecare.com/home-care-careers/home-health-aide-hha-chha-job-newton-part-time-q1944","Connected home care"
"1352","Apr 14, 2019","Kettlie","Juste","Mattapan","Waltham","Home Health Aide","needham","google","adwords","hha-job-description","","ext","","Mozilla/5.0 (Windows NT 10.0; WOW64) AppleWebKit/537.36 (KHTML, like Gecko) Chrome/71.0.3578.98 Safari/537.36","https://connectedhomecare.com/home-care-careers/home-health-aide-job-needham-q194048/","NONE"
"1400","Apr 22, 2019","Isil","Farah","Somerville","Waltham","Home Health Aide","watertown","","","","","","","Mozilla/5.0 (iPhone; CPU iPhone OS 12_2 like Mac OS X) AppleWebKit/605.1.15 (KHTML, like Gecko) Version/12.1 Mobile/15E148 Safari/604.1","https://connectedhomecare.com/home-care-careers/home-health-aide-job-watertown-q194051/","Yes"
"1398","Apr 21, 2019","Franky","Francois","Waltham","Waltham","Homemaker","waltham","","","","","","","Mozilla/5.0 (iPhone; CPU iPhone OS 12_2 like Mac OS X) AppleWebKit/605.1.15 (KHTML, like Gecko) Version/12.1 Mobile/15E148 Safari/604.1","https://connectedhomecare.com/home-care-careers/homemaker-job-waltham-p31137/","Kerline Bernar"
"1412","Apr 23, 2019","Jenni","Fusco","Rockport","Gloucester","","","","","","","","","Mozilla/5.0 (iPad; CPU OS 12_2 like Mac OS X) AppleWebKit/605.1.15 (KHTML, like Gecko) Version/12.1 Mobile/15E148 Safari/604.1","https://connectedhomecare.com/indeed/",""
"1428","Apr 24, 2019","Catherine","Waiswa","Brighton","Waltham","Home Health Aide","waltham","","","","","","","Mozilla/5.0 (Windows NT 10.0; Win64; x64) AppleWebKit/537.36 (KHTML, like Gecko) Chrome/52.0.2743.116 Safari/537.36 Edge/15.15063","https://connectedhomecare.com/home-care-careers/home-health-aide-job-waltham-q194050/","no"
"1357","Apr 16, 2019","Julie","Lounsbury","Gloucester","Gloucester","Home Health Aide","manchester-by-the-sea","","","","","","","Mozilla/5.0 (Windows NT 10.0; Win64; x64) AppleWebKit/537.36 (KHTML, like Gecko) Chrome/73.0.3683.103 Safari/537.36","https://connectedhomecare.com/home-care-careers/home-health-aide-job-manchester-by-the-sea-q193793/",""
"1300","Apr 09, 2019","Evelyn","Musoke","Watertown","Waltham","Home Health Aide","watertown","google_jobs_apply","organic","","","google_jobs_apply","","Mozilla/5.0 (Linux; Android 8.0.0; SM-G930T) AppleWebKit/537.36 (KHTML, like Gecko) Chrome/72.0.3626.76 Mobile Safari/537.36","https://connectedhomecare.com/home-care-careers/home-health-aide-job-watertown-q194051/?utm_campaign","Home Elderly Agency"
"1318","Apr 10, 2019","Hannah","Nanyonjo","Waltham","Waltham","Home Health Aide","waltham","","","","","","","Mozilla/5.0 (Linux; Android 8.1.0; SAMSUNG SM-G610F Build/M1AJQ) AppleWebKit/537.36 (KHTML, like Gecko) SamsungBrowser/9.2 Chrome/67.0.3396.87 Mobile Safari/537.36","https://connectedhomecare.com/home-care-careers/home-health-aide-job-waltham-q194050/","Albert m"
"1097","Mar 19, 2019","Jeanette","Garcia","Hyde Park","Waltham","Personal Care Aide","natick","","","","","","","Mozilla/5.0 (Linux; Android 8.0.0; SM-J737T1) AppleWebKit/537.36 (KHTML, like Gecko) Chrome/73.0.3683.75 Mobile Safari/537.36","https://connectedhomecare.com/home-care-careers/personal-care-aide-job-natick-q193764/",""
"1254","Apr 04, 2019","Josephine","Nabatanzi","Watertown","Waltham","Companion Caregiver","watertown","","","","","","","Mozilla/5.0 (Windows NT 10.0; WOW64; Trident/7.0; Touch; rv:11.0) like Gecko","https://connectedhomecare.com/home-care-careers/companion-job-watertown-q193921/",""
"1329","Apr 11, 2019","Jennifer Lee","Levitz Aronson","Gloucester","Gloucester","","","","","","","","","Mozilla/5.0 (Windows NT 10.0; Win64; x64) AppleWebKit/537.36 (KHTML, like Gecko) Chrome/73.0.3683.103 Safari/537.36","","no"
"1323","Apr 11, 2019","Rosanna","Loiacono","gloucester","Gloucester","","","","","","","","","Mozilla/5.0 (Windows NT 10.0; Win64; x64) AppleWebKit/537.36 (KHTML, like Gecko) Chrome/73.0.3683.86 Safari/537.36","https://www.google.com/",""
"1295","Apr 08, 2019","Lucia","Burby","Gloucester","Gloucester","","","","","","","","","Mozilla/5.0 (Linux; Android 8.1.0; LM-Q610(FGN)) AppleWebKit/537.36 (KHTML, like Gecko) Chrome/73.0.3683.90 Mobile Safari/537.36","http://connectedhomecare.com/indeed/",""
"1255","Apr 04, 2019","Cristina","Ciaramitaro","Gloucester","Gloucester","Companion Caregiver","gloucester","","","","","","","Mozilla/5.0 (Windows NT 10.0; Win64; x64) AppleWebKit/537.36 (KHTML, like Gecko) Chrome/64.0.3282.140 Safari/537.36 Edge/17.17134","https://connectedhomecare.com/home-care-careers/companion-job-gloucester-q193892/","Jennifer Athanas"
"1340","Apr 12, 2019","Lucille","Huston","Rockport","Gloucester","","","","","","","","","Mozilla/5.0 (Windows NT 10.0; Win64; x64) AppleWebKit/537.36 (KHTML, like Gecko) Chrome/73.0.3683.103 Safari/537.36","","no"
"1321","Apr 11, 2019","brahim","ahdarf","gloucester","Gloucester","","","","","","","","","Mozilla/5.0 (Windows NT 10.0; Win64; x64) AppleWebKit/537.36 (KHTML, like Gecko) Chrome/64.0.3282.140 Safari/537.36 Edge/17.17134","","no"
"1339","Apr 12, 2019","Adrineh","Nalbandian","Waltham","Waltham","Companion Caregiver","waltham","","","","","","","Mozilla/5.0 (Macintosh; Intel Mac OS X 10_12_6) AppleWebKit/605.1.15 (KHTML, like Gecko) Version/12.0.3 Safari/605.1.15","https://connectedhomecare.com/home-care-careers/companion-job-waltham-q193920/","No"
"1258","Apr 04, 2019","Kerline","Bernar","WALTHAM","Waltham","Homemaker","waltham","","","","","","","Mozilla/5.0 (Linux; Android 9; SM-N960U) AppleWebKit/537.36 (KHTML, like Gecko) Chrome/71.0.3578.99 Mobile Safari/537.36","https://connectedhomecare.com/home-care-careers/homemaker-job-waltham-q193790/","Marie Clermont"
"1249","Apr 03, 2019","Christopher","Mbowa","Waltham","Waltham","Companion Caregiver","waltham","google_jobs_apply","organic","","","google_jobs_apply","","Mozilla/5.0 (iPhone; CPU iPhone OS 12_2 like Mac OS X) AppleWebKit/605.1.15 (KHTML, like Gecko) Version/12.1 Mobile/15E148 Safari/604.1","https://connectedhomecare.com/home-care-careers/companion-job-waltham-q193920/?utm_campaign=google_j",""
"1304","Apr 09, 2019","Ssemambo","Godfrey","Waltham","Waltham","Home Health Aide","waltham","","","","","","","Mozilla/5.0 (Linux; Android 8.1.0; LM-X212(G)) AppleWebKit/537.36 (KHTML, like Gecko) Chrome/73.0.3683.90 Mobile Safari/537.36","https://connectedhomecare.com/home-care-careers/home-health-aide-job-waltham-q193685/","No"
"1186","Mar 27, 2019","Malinda","Hachlafi","Gloucester","Gloucester","","","","offline","","","sign on bonus","","Mozilla/5.0 (iPhone; CPU iPhone OS 12_2 like Mac OS X) AppleWebKit/605.1.15 (KHTML, like Gecko) Mobile/15E148 [FBAN/FBIOS;FBDV/iPhone8,2;FBMD/iPhone;FBSN/iOS;FBSV/12.2;FBSS/3;FBCR/Sprint;FBID/phone;FBLC/en_US;FBOP/5]","https://connectedhomecare.com/sign-on-bonus-lp/?utm_medium=offline&utm_campaign=sign+on+bonus",""
"1185","Mar 27, 2019","Maria","Herrera","Waltham","Waltham","Home Health Aide","watertown","","","","","","","Mozilla/5.0 (Windows NT 10.0; Win64; x64) AppleWebKit/537.36 (KHTML, like Gecko) Chrome/72.0.3626.121 Safari/537.36","https://connectedhomecare.com/home-care-careers/home-health-aide-job-watertown-q193856/","no"
"1219","Apr 01, 2019","Jennifer","Van Valkenburg","Waltham","Waltham","Home Health Aide","waltham","google","adwords","hha","","concord-hha-job-app","","Mozilla/5.0 (Macintosh; Intel Mac OS X 10.11; rv:66.0) Gecko/20100101 Firefox/66.0","https://connectedhomecare.com/home-care-careers/home-health-aide-job-waltham-q193855/?utm_campaign=g",""
"1213","Mar 31, 2019","Natalie","Mellen","Rockport","Gloucester","Companion","gloucester","","","","","","","Mozilla/5.0 (iPhone; CPU iPhone OS 12_1_4 like Mac OS X) AppleWebKit/605.1.15 (KHTML, like Gecko) Version/12.0 Mobile/15E148 Safari/604.1","https://connectedhomecare.com/home-care-careers/companion-job-gloucester-p31118/","No"
"1153","Mar 25, 2019","Keana","Salvi-Souza","Gloucester","Gloucester","","","","","","","","","Mozilla/5.0 (Linux; Android 8.0.0; SAMSUNG SM-N950U Build/R16NW) AppleWebKit/537.36 (KHTML, like Gecko) SamsungBrowser/8.2 Chrome/63.0.3239.111 Mobile Safari/537.36","http://connectedhomecare.com/indeed/",""
"1137","Mar 22, 2019","Pamela","Owen","Gloucester","Gloucester","Home Health Aide","gloucester","","","","","","","Mozilla/5.0 (iPad; CPU OS 12_1_1 like Mac OS X) AppleWebKit/605.1.15 (KHTML, like Gecko) Version/12.0 Mobile/15E148 Safari/604.1","https://connectedhomecare.com/home-care-careers/home-health-aide-job-gloucester-q193742/","No.  Potential Client, seeking support services from Agency, referred me."
"1199","Mar 29, 2019","Temilade","Badru","Gloucester","Gloucester","Home Health Aide","gloucester","","","","","","","Mozilla/5.0 (Windows NT 10.0; Win64; x64) AppleWebKit/537.36 (KHTML, like Gecko) Chrome/73.0.3683.86 Safari/537.36","https://connectedhomecare.com/home-care-careers/home-health-aide-job-gloucester-q193376/","Ruth"
"1188","Mar 27, 2019","Albert","Mayiga","Alliston","Waltham","Home Health Aide","watertown","","","","","","","Mozilla/5.0 (Linux; Android 7.1.1; Z851M) AppleWebKit/537.36 (KHTML, like Gecko) Chrome/73.0.3683.90 Mobile Safari/537.36","https://connectedhomecare.com/home-care-careers/home-health-aide-job-watertown-q193856/",""
"1144","Mar 22, 2019","Ronald","Kiggundu","Waltham","Waltham","","","","","","","","","Mozilla/5.0 (Linux; Android 8.1.0; LM-X212(G)) AppleWebKit/537.36 (KHTML, like Gecko) Chrome/73.0.3683.75 Mobile Safari/537.36","https://connectedhomecare.com/home-elder-care-resources-waltham-ma/","No"
