{
    "name": "Billing",
    "alias": "billing",
    "description": "",
    "keywords": [],
    "active": 1,
    "order": 0,
    "providers": [
        "Modules\\Billing\\Providers\\BillingServiceProvider",
        "Modules\\Billing\\Providers\\EventServiceProvider"
    ],
    "aliases": {},
    "files": [
        "start.php"
    ],
    "requires": []
}
