<table id="programTable">
        <thead><tr><th>Service</th><th>Rate</th><th>Description</th><th>Billing Code</th><th>Status</th></tr></thead>
        <tbody id="agencyProgramsTbody"><tr class="defaultRow" id="AP3699"><td class="">Admission</td><td class="">0.00</td><td class="">Admit New Client</td><td class=""></td><td class="">Active</td></tr><tr class="defaultRow" id="AP3708"><td class="">CP</td><td class="">21.48</td><td class="">Companion</td><td class=""></td><td class="">Active</td></tr><tr class="defaultRow" id="AP3736"><td class="">HHA</td><td class="">24.40</td><td class="">Home Health Aide</td><td class=""></td><td class="">Active</td></tr><tr class="defaultRow" id="AP3977"><td class="">HHA42</td><td class="">24.40</td><td class="">Home Health Aide - 42+</td><td class=""></td><td class="">Active</td></tr><tr class="defaultRow" id="AP3698"><td class="">HM</td><td class="">24.08</td><td class="">Homemaker</td><td class=""></td><td class="">Active</td></tr><tr class="defaultRow" id="AP3705"><td class="">HM42</td><td class="">23.52</td><td class="">Homemaker - 42+</td><td class=""></td><td class="">Active</td></tr><tr class="defaultRow" id="AP3700"><td class="">Intro</td><td class="">0.00</td><td class="">In Person Visit - No Bill</td><td class=""></td><td class="">Active</td></tr><tr class="defaultRow" id="AP3710"><td class="">NS</td><td class="">347.96</td><td class="">Skilled Nursing Services</td><td class=""></td><td class="">Active</td></tr><tr class="defaultRow" id="AP3794"><td class="">ON-HHA</td><td class="">24.40</td><td class="">Home Health Aide</td><td class=""></td><td class="">Active</td></tr><tr class="defaultRow" id="AP3712"><td class="">ON-HM42</td><td class="">23.52</td><td class="">Homemaker - 42+</td><td class=""></td><td class="">Active</td></tr><tr class="defaultRow" id="AP3713"><td class="">ON-PC42</td><td class="">23.52</td><td class="">Personal Care - 42+</td><td class=""></td><td class="">Active</td></tr><tr class="defaultRow" id="AP3714"><td class="">ON-SHCA42</td><td class="">26.60</td><td class="">Supportive Home Care Aide - 42+</td><td class=""></td><td class="">Active</td></tr><tr class="defaultRow" id="AP3711"><td class="">OT</td><td class="">71.20</td><td class="">Occupational Therapy</td><td class=""></td><td class="">Active</td></tr><tr class="defaultRow" id="AP3703"><td class="">PC</td><td class="">24.08</td><td class="">Personal Care</td><td class=""></td><td class="">Active</td></tr><tr class="defaultRow" id="AP3706"><td class="">PC42</td><td class="">23.52</td><td class="">Personal Care - 42+</td><td class=""></td><td class="">Active</td></tr><tr class="defaultRow" id="AP3978"><td class="">SHC-AD42</td><td class="">26.60</td><td class="">Supportive Home Care Aide - ADRD 42+</td><td class=""></td><td class="">Active</td></tr><tr class="defaultRow" id="AP3803"><td class="">SHC-ADRD</td><td class="">27.16</td><td class="">Supportive Home Care Aide - ADRD</td><td class=""></td><td class="">Active</td></tr><tr class="defaultRow" id="AP3704"><td class="">SHCA</td><td class="">27.16</td><td class="">Supportive Home Care Aide</td><td class=""></td><td class="">Active</td></tr><tr class="defaultRow" id="AP3804"><td class="">SHCA-BH</td><td class="">27.16</td><td class="">Supportive Home Care Aide - BH</td><td class=""></td><td class="">Active</td></tr><tr class="defaultRow" id="AP3707"><td class="">SHCA-Dis</td><td class="">26.60</td><td class="">Supportive Home Care Aide - Discount</td><td class=""></td><td class="">Active</td></tr><tr class="defaultRow" id="AP3702"><td class="">Supv</td><td class="">0.00</td><td class="">In Person Visit-No Bill</td><td class=""></td><td class="">Active</td></tr><tr class="defaultRow" id="AP3701"><td class="">Verb/Intro</td><td class="">0.00</td><td class="">Verbal Intro - No Bill</td><td class=""></td><td class="">Active</td></tr></tbody>
    </table>