<table id="programTable">
        <thead><tr><th>Service</th><th>Rate</th><th>Description</th><th>Billing Code</th><th>Status</th></tr></thead>
        <tbody id="agencyProgramsTbody"><tr class="defaultRow" id="AP3779"><td class="">Admission</td><td class="">0.00</td><td class="">Admit New Client</td><td class=""></td><td class="">Active</td></tr><tr class="defaultRow" id="AP4122"><td class="">CP</td><td class="">22.00</td><td class="">Companion</td><td class=""></td><td class="">Active</td></tr><tr class="defaultRow" id="AP4121"><td class="">HHA</td><td class="">24.40</td><td class="">Home Health Aide</td><td class=""></td><td class="">Active</td></tr><tr class="defaultRow" id="AP3774"><td class="">HM</td><td class="">24.92</td><td class="">Homemaker</td><td class=""></td><td class="">Active</td></tr><tr class="defaultRow" id="AP3780"><td class="">Intro</td><td class="">0.00</td><td class="">In Person Visit - No Bill</td><td class=""></td><td class="">Active</td></tr><tr class="defaultRow" id="AP4123"><td class="">NS</td><td class="">347.96</td><td class="">Skilled Nursing Services</td><td class=""></td><td class="">Active</td></tr><tr class="defaultRow" id="AP4024"><td class="">Office</td><td class="">0.00</td><td class="">all non salaried office work</td><td class="">0.00</td><td class="">Active</td></tr><tr class="defaultRow" id="AP4863"><td class="">PA</td><td class="">24.92</td><td class="">Premium Aide</td><td class=""></td><td class="">Active</td></tr><tr class="defaultRow" id="AP3776"><td class="">PC</td><td class="">24.92</td><td class="">Personal Care</td><td class=""></td><td class="">Active</td></tr><tr class="defaultRow" id="AP3777"><td class="">SHC</td><td class="">27.16</td><td class="">Supportive Home Care Aide</td><td class=""></td><td class="">Active</td></tr><tr class="defaultRow" id="AP4031"><td class="">Supv</td><td class="">0.00</td><td class="">In Person Visit-No Bill</td><td class="">0.00</td><td class="">Active</td></tr><tr class="defaultRow" id="AP3799"><td class="">Verb-Fill</td><td class="">0.00</td><td class="">Verbal Intros for Fill-In Shifts</td><td class=""></td><td class="">Active</td></tr><tr class="defaultRow" id="AP3800"><td class="">Verb/Intro</td><td class="">0.00</td><td class="">Verbal Intro - No Bill</td><td class="">0</td><td class="">Active</td></tr></tbody>
    </table>