{
    "name": "Payout",
    "alias": "payout",
    "description": "",
    "keywords": [],
    "active": 1,
    "order": 0,
    "providers": [
        "Modules\\Payout\\Providers\\PayoutServiceProvider",
        "Modules\\Payout\\Providers\\PayoutBankServiceProvider"
    ],
    "aliases": {},
    "files": [
        "start.php"
    ],
    "requires": []
}
